﻿months,date,public_chargers,unspecified,regular,fast,ultrafast
Aug-20,15.08.2020,1376,1376,,,
Dec-21,15.12.2021,1614,,1297,231,86
Jun-22,15.06.2022,,,,275,86
Dec-22,16.12.2022,2392,,1928,365,99
Jun-23,15.06.2023,,,,438,120
