date,coal,oil,natural_gas,pec_fossil
1981,407.75,-118.0833333,0,817.7777778
1982,435.8333333,-119.5277778,-0.027777778,841.7222222
1983,498.0277778,-102.5,0,812.1666667
1984,531.8888889,-64.19444444,0,840.2777778
1985,621.8055556,-16.33333333,0,878.9166667
1986,730.6666667,-6.777777778,0,886.6666667
1987,821.8333333,-12.80555556,0,918.25
1988,723.5277778,-30.11111111,0,947.3611111
1989,799.3888889,-80.02777778,0,1002.611111
1990,863.5,-46.83333333,30.33333333,1032.472222
1991,904.6944444,-45.72222222,51.38888889,1033.194444
1992,982.5277778,-53.05555556,70.41666667,1045.388889
1993,1000.611111,-71,75.30555556,1067.027778
1994,999.8333333,-100.3888889,91.13888889,1091.861111
1995,1098.638889,-99.08333333,106.0555556,1141.527778
1996,1102.916667,-124.4166667,113.0833333,1176.888889
1997,1190.694444,-114.2777778,113.1388889,1203.222222
1998,1293.611111,-84.97222222,115.6111111,1249.694444
1999,1288.944444,-156.25,123.6666667,1280.083333
2000,1387.111111,-61.38888889,109.7222222,1304.694444
2001,1518.638889,-44.97222222,115.25,1317.472222
2002,1617.777778,-81.13888889,115.0555556,1347.916667
2003,1639.028466,-122.9624425,137.0850153,1350.75
2004,1677.818618,-181.6229519,129.0726907,1390.611111
2005,1815.991529,-223.6837075,170.7573127,1422.194444
2006,1831.460595,-273.7784336,186.1861618,1462.027778
2007,1956.532922,-231.7610631,177.9566204,1510.222222
2008,1967.592647,-255.4693508,187.905513,1514.722222
2009,2058.276842,-240.7069967,189.6480566,1556.833333
2010,2303.861401,-268.7690153,223.4218528,1539.055556
2011,2182.609933,-326.4429178,276.7000881,1558.361111
2012,2376.45175,-335.5303172,226.8223322,1554.833333
2013,2670.948228,-391.7683814,302.1032369,1551.5
2014,2950.504149,-406.0102708,319.6446852,1535.222222
2015,3051.648674,-403.0956247,347.874179,1541.888889
2016,2991.983562,-423.7909336,499.0340199,1576.305556
2017,3004.440181,-457.8939022,736.6254423,1590.444444
2018,3054.471988,-488.5433525,887.9885991,1607.166667
2019,3121.215266,-456.160982,1096.540012,1607.805556
2020,3065.428841,-358.8336465,1199.421521,1550.555556
2021,2813.404462,-338.073349,1158.110045,1473.472222
2022,2790.151346,-336.7108985,1254.649621,1458.194444
