date,coal,oil,natural_gas,sum_fossil,renewables,plan
1976,272.5555556,372.1388889,58.66666667,703.3611111,57.27777778,
1977,291.0277778,391.8333333,71.16666667,754.0277778,55.36111111,
1978,297.3333333,399.5277778,78.61111111,775.4722222,55.88888889,
1979,306.3888889,400.25,87.47222222,794.1111111,55.44444444,
1980,324.6944444,392.1111111,100.7222222,817.5277778,53.77777778,
1981,324.8333333,377.3888889,115.5555556,817.7777778,57.22222222,
1982,341.4444444,371.9444444,128.3333333,841.7222222,58.52777778,
1983,331.9166667,350.75,129.5,812.1666667,56.52777778,
1984,341.1944444,362.9722222,136.1111111,840.2777778,55.80555556,
1985,370.6111111,362.9444444,145.3611111,878.9166667,59.13888889,
1986,365.6666667,362.4722222,158.5277778,886.6666667,59.69444444,
1987,389.3055556,365.5,163.4444444,918.25,59.58333333,
1988,397.4166667,380.3611111,169.5833333,947.3611111,60.66666667,
1989,430.1111111,398.1111111,174.3888889,1002.611111,63.52777778,
1990,437.8055556,403.5277778,191.1388889,1032.472222,64.72222222,
1991,450.8888889,400.25,182.0555556,1033.194444,65.63888889,
1992,455.6388889,401.25,188.5,1045.388889,61.63888889,
1993,456.2777778,414.3611111,196.3888889,1067.027778,67.72222222,
1994,461.5,425.6944444,204.6666667,1091.861111,70.08333333,
1995,475.0277778,446.1944444,220.3055556,1141.527778,71.88888889,
1996,493.3055556,462.1944444,221.3888889,1176.888889,74.22222222,
1997,514.6111111,461.2777778,227.3333333,1203.222222,77.80555556,
1998,544.3055556,466.6944444,238.6944444,1249.694444,77.27777778,
1999,561.8611111,471.7222222,246.5,1280.083333,77.30555556,
2000,570.1388889,478.5833333,255.9722222,1304.694444,76.13888889,
2001,578.1944444,472.6388889,266.6388889,1317.472222,74.69444444,
2002,591.0555556,486.1111111,270.75,1347.916667,67.91666667,
2003,588.5277778,500.5277778,261.6944444,1350.75,59.55555556,
2004,617.1388889,502.9166667,270.5555556,1390.611111,60.41666667,
2005,626.25,519.1666667,276.7777778,1422.194444,61.25,
2006,636.8611111,547.1388889,278.0277778,1462.027778,61.19444444,
2007,643.5,552.3055556,314.4166667,1510.222222,62.83333333,
2008,638.9444444,551.1388889,324.6388889,1514.722222,64.27777778,
2009,653.0555556,555.75,348.0277778,1556.833333,66.63888889,
2010,618,571.6666667,349.3888889,1539.055556,78.5,
2011,589.9722222,614.4444444,353.9444444,1558.361111,81.83333333,
2012,576.3055556,606.7222222,371.8055556,1554.833333,81.61111111,
2013,536.3611111,632.7777778,382.3611111,1551.5,92.63888889,
2014,512.7222222,638.1111111,384.3888889,1535.222222,95.61111111,
2015,529.7777778,621.2777778,390.8333333,1541.888889,96.58333333,
2016,543.0277778,633.1944444,400.0833333,1576.305556,100.0555556,
2017,536.1111111,643.8888889,410.4444444,1590.444444,105.3055556,
2018,513.1388889,667.8055556,426.2222222,1607.166667,106.25,
2019,500.4722222,673.4722222,433.8611111,1607.805556,111.1666667,
2020,474.0833333,625.4166667,451.0555556,1550.555556,116.3333333,
2021,461.5,578.3333333,433.6388889,1473.472222,129.0555556,
2022,440.7777778,584.2777778,433.1388889,1458.194444,142.3611111,
2023,,,,,,
2024,,,,,,
2025,,,,,,
2026,,,,,,
2027,,,,,,
2028,,,,,,
2029,,,,,,
2030,,,,,,
2031,,,,,,
2032,,,,,,
2033,,,,,,
2034,,,,,,
2035,,,,,,
2036,,,,,,
2037,,,,,,
2038,,,,,,
2039,,,,,,
2040,,,,,,
2041,,,,,,
2042,,,,,,
2043,,,,,,
2044,,,,,,
2045,,,,,,
2046,,,,,,
2047,,,,,,
2048,,,,,,
2049,,,,,,
2050,,,,,,0
