date,Gewerbespeicher_value,Großspeicher_value,Heimspeicher_value,Total_value,Gewerbespeicher_value_cum,Großspeicher_value_cum,Heimspeicher_value_cum,Total_value_cum
2018-12,40.309254,437.424,508.07372399999997,985.806978,0.040309254,0.437424,0.508073724,0.9858069780000001
2019-01,2.73842,0.0,19.28216,22.020580000000002,0.043047674,0.437424,0.527355884,1.007827558
2019-02,1.3527,0.0,17.5778,18.9305,0.044400374000000006,0.437424,0.544933684,1.026758058
2019-03,2.8501999999999996,24.89,22.847085,50.587285,0.047250574000000004,0.462314,0.567780769,1.077345343
2019-04,1.6933099999999999,0.0,27.308155,29.001465,0.048943884,0.462314,0.595088924,1.106346808
2019-05,1.4188699999999999,24.0,30.370420000000003,55.78929,0.050362754,0.486314,0.625459344,1.162136098
2019-06,1.7423,2.74,28.138993,32.621292999999994,0.052105054000000005,0.489054,0.6535983369999999,1.1947573909999998
2019-07,2.8371,27.1,35.15761,65.09470999999999,0.054942154,0.516154,0.688755947,1.259852101
2019-08,2.62512,0.0,31.084152999999997,33.709273,0.057567273999999995,0.516154,0.7198401,1.2935613739999998
2019-09,3.8335100000000004,0.0,34.67117,38.50468,0.061400784,0.516154,0.7545112700000001,1.332066054
2019-10,3.24694,0.0,39.57431,42.82125,0.064647724,0.516154,0.79408558,1.374887304
2019-11,3.7495700000000003,0.0,36.48045,40.230019999999996,0.068397294,0.516154,0.8305660300000001,1.4151173240000001
2019-12,3.0366500000000003,1.507,24.11655,28.6602,0.071433944,0.517661,0.85468258,1.443777524
2020-01,3.21841,1.6,47.022745,51.841155,0.074652354,0.519261,0.901705325,1.495618679
2020-02,3.3871599999999997,10.9584,36.208510000000004,50.55407,0.07803951399999999,0.5302194,0.9379138349999999,1.546172749
2020-03,4.61107,1.5,49.191874000000006,55.302944000000004,0.082650584,0.5317194000000001,0.987105709,1.601475693
2020-04,3.98257,0.0,51.003945,54.986515,0.08663315399999999,0.5317194000000001,1.0381096539999999,1.656462208
2020-05,3.60769,0.0,53.19126,56.798950000000005,0.090240844,0.5317194000000001,1.0913009139999998,1.713261158
2020-06,5.12988,0.0,56.58999,61.71986999999999,0.095370724,0.5317194000000001,1.147890904,1.7749810280000002
2020-07,4.18421,7.5,71.469291,83.153501,0.09955493400000001,0.5392194,1.2193601950000001,1.8581345290000002
2020-08,3.85785,0.0,62.158190000000005,66.01604,0.103412784,0.5392194,1.281518385,1.924150569
2020-09,4.0295,0.0,79.33515700000001,83.36465700000001,0.107442284,0.5392194,1.3608535419999999,2.0075152259999998
2020-10,5.24335,2.148,86.44386,93.83521,0.112685634,0.5413674,1.447297402,2.1013504359999997
2020-11,6.79186,52.63,83.55081299999999,142.97267300000001,0.119477494,0.5939974,1.530848215,2.244323109
2020-12,5.35169,15.575,64.87006,85.79675,0.12482918400000001,0.6095724,1.5957182749999999,2.3301198590000003
2021-01,5.33616,10.14,72.873,88.34916,0.130165344,0.6197124,1.6685912749999998,2.4184690189999998
2021-02,4.51359,6.244,63.442098,74.199688,0.134678934,0.6259564,1.732033373,2.492668707
2021-03,8.03405,0.0,95.503333,103.537383,0.142712984,0.6259564,1.827536706,2.59620609
2021-04,4.526421999999999,0.0,98.479754,103.00617600000001,0.147239406,0.6259564,1.92601646,2.699212266
2021-05,5.37974,0.0,99.533037,104.912777,0.152619146,0.6259564,2.025549497,2.804125043
2021-06,6.80318,0.0,118.31975100000001,125.12293100000001,0.159422326,0.6259564,2.143869248,2.9292479740000004
2021-07,5.0730699999999995,0.0,120.094255,125.167325,0.16449539600000002,0.6259564,2.263963503,3.054415299
2021-08,7.04169,10.0,105.918798,122.960488,0.171537086,0.6359564,2.369882301,3.177375787
2021-09,5.11218,0.0,128.457356,133.569536,0.176649266,0.6359564,2.4983396570000003,3.310945323
2021-10,5.08776,3.01,127.68645699999999,135.784217,0.18173702600000002,0.6389664,2.626026114,3.44672954
2021-11,6.3539200000000005,2.633,124.95789599999999,133.944816,0.188090946,0.6415994,2.75098401,3.580674356
2021-12,10.1839,18.82,91.420247,120.42414699999999,0.19827484599999998,0.6604194,2.8424042569999997,3.7010985029999994
2022-01,6.27963,16.503,113.011655,135.794285,0.20455447599999999,0.6769224,2.955415912,3.836892788
2022-02,5.6023000000000005,0.0,117.372502,122.974802,0.21015677600000002,0.6769224,3.0727884139999997,3.95986759
2022-03,5.54634,1.068,161.19134,167.80568,0.215703116,0.6779904,3.233979754,4.12767327
2022-04,7.7879380000000005,16.679,138.315868,162.782806,0.223491054,0.6946694,3.3722956219999998,4.290456076000001
2022-05,7.459849999999999,3.678,163.264297,174.40214699999999,0.230950904,0.6983474000000001,3.5355599189999998,4.464858222999999
2022-06,8.042060000000001,3.84,156.204229,168.086289,0.238992964,0.7021874,3.691764148,4.632944512
2022-07,8.96506,1.7,150.418388,161.083448,0.247958024,0.7038874,3.8421825359999997,4.79402796
2022-08,10.42103,10.84048,219.672176,240.93368600000002,0.258379054,0.71472788,4.061854712,5.034961645999999
2022-09,12.78406,20.7,216.517528,250.001588,0.271163114,0.73542788,4.27837224,5.284963234
2022-10,8.53301,36.128,195.134705,239.795715,0.279696124,0.77155588,4.4735069450000005,5.524758949
2022-11,10.647,91.4472,194.217041,296.311241,0.290343124,0.8630030799999999,4.6677239859999995,5.8210701899999995
2022-12,10.300308000000001,273.81952,116.759164,400.87899200000004,0.30064343200000004,1.1368226000000001,4.784483150000001,6.221949182
2023-01,14.367280000000001,23.472,399.962166,437.801446,0.315010712,1.1602946,5.184445316,6.659750627999999
2023-02,12.92451,11.677,348.82861099999997,373.430121,0.327935222,1.1719716,5.533273927,7.033180749
2023-03,14.959929,23.5832,449.525516,488.068645,0.342895151,1.1955548,5.982799443,7.521249394000001
2023-04,13.950327999999999,40.094199999999994,384.022538,438.067066,0.35684547899999997,1.235649,6.366821980999999,7.95931646
2023-05,13.094652,22.87852,473.25424499999997,509.227417,0.369940131,1.2585275200000001,6.840076226,8.468543877
2023-06,15.074736000000001,24.3104,528.25271,567.637846,0.38501486700000004,1.28283792,7.368328936,9.036181722999999
2023-07,17.414518,0.0,520.536079,537.9505969999999,0.40242938500000003,1.28283792,7.8888650149999995,9.57413232
2023-08,20.088919999999998,0.0,518.439413,538.528333,0.422518305,1.28283792,8.407304428,10.112660652999999
2023-09,19.225450000000002,56.502152,509.42687,585.1544719999999,0.441743755,1.339340072,8.916731298,10.697815125
2023-10,20.45137,31.45,478.146397,530.047767,0.462195125,1.370790072,9.394877695,11.227862892000001
2023-11,21.09141,75.2128,474.64882,570.95303,0.48328653499999996,1.446002872,9.869526515,11.798815922000001
2023-12,18.13273,12.912,320.62199699999996,351.666727,0.501419265,1.458914872,10.190148512,12.150482649
2024-01,25.063306,69.98660000000001,410.841969,505.891875,0.526482571,1.528901472,10.600990481,12.656374524
2024-02,14.178370000000001,60.763,352.151663,427.093033,0.540660941,1.5896644720000002,10.953142144,13.083467557
2024-03,16.827149000000002,12.131,404.603695,433.561844,0.55748809,1.601795472,11.357745839,13.517029401
2024-04,21.10626,52.983,447.60712199999995,521.696382,0.5785943499999999,1.654778472,11.805352960999999,14.038725783
2024-05,20.5185,20.594,417.844375,458.956875,0.59911285,1.675372472,12.223197335999998,14.497682658
2024-06,21.82393,23.625,426.49952,471.94845000000004,0.6209367800000001,1.698997472,12.649696856,14.969631108000002
2024-07,20.17119,48.447328,476.302712,544.92123,0.64110797,1.7474448,13.125999568,15.514552338
2024-08,17.155308,70.966128,369.115201,457.236637,0.6582632780000001,1.818410928,13.495114768999999,15.971788974999999
2024-09,15.411987,18.774,365.730207,399.916194,0.673675265,1.837184928,13.860844976,16.371705169
2024-10,18.061262,35.701,358.00178600000004,411.764048,0.691736527,1.872885928,14.218846762,16.783469217
2024-11,21.599895,146.69527499999998,320.43618599999996,488.73135599999995,0.713336422,2.019581203,14.539282947999999,17.272200573
2024-12,16.336513999999998,186.011,237.051134,439.398648,0.7296729359999999,2.205592203,14.776334082,17.711599221
2025-01,1.14827,0.0,24.024039000000002,25.172309000000002,0.730821206,2.205592203,14.800358120999999,17.736771530000002
