﻿Date,CPI
01/01/1991,60.5
01/02/1991,60.8
01/03/1991,60.8
01/04/1991,61
01/05/1991,61.1
01/06/1991,61.5
01/07/1991,62.2
01/08/1991,62.2
01/09/1991,62.2
01/10/1991,63.2
01/11/1991,63.4
01/12/1991,63.5
01/01/1992,63.9
01/02/1992,64.3
01/03/1992,64.5
01/04/1992,64.7
01/05/1992,64.9
01/06/1992,65.1
01/07/1992,65.3
01/08/1992,65.3
01/09/1992,65.3
01/10/1992,65.3
01/11/1992,65.6
01/12/1992,65.7
01/01/1993,66.8
01/02/1993,67.3
01/03/1993,67.5
01/04/1993,67.7
01/05/1993,67.8
01/06/1993,68
01/07/1993,68.3
01/08/1993,68.3
01/09/1993,68.2
01/10/1993,68.2
01/11/1993,68.3
01/12/1993,68.5
01/01/1994,68.8
01/02/1994,69.4
01/03/1994,69.5
01/04/1994,69.6
01/05/1994,69.7
01/06/1994,69.8
01/07/1994,69.9
01/08/1994,70.1
01/09/1994,69.9
01/10/1994,69.8
01/11/1994,69.9
01/12/1994,70.1
01/01/1995,70.4
01/02/1995,70.8
01/03/1995,70.8
01/04/1995,70.9
01/05/1995,70.9
01/06/1995,71
01/07/1995,71.2
01/08/1995,71.2
01/09/1995,71.2
01/10/1995,71
01/11/1995,71
01/12/1995,71.2
01/01/1996,70.8490566
01/02/1996,71.32075472
01/03/1996,71.41509434
01/04/1996,71.32075472
01/05/1996,71.41509434
01/06/1996,71.50943396
01/07/1996,71.69811321
01/08/1996,71.60377358
01/09/1996,71.60377358
01/10/1996,71.50943396
01/11/1996,71.41509434
01/12/1996,71.69811321
01/01/1997,72.16981132
01/02/1997,72.45283019
01/03/1997,72.35849057
01/04/1997,72.16981132
01/05/1997,72.45283019
01/06/1997,72.54716981
01/07/1997,72.83018868
01/08/1997,72.83018868
01/09/1997,72.64150943
01/10/1997,72.54716981
01/11/1997,72.54716981
01/12/1997,72.73584906
01/01/1998,72.64150943
01/02/1998,72.83018868
01/03/1998,72.73584906
01/04/1998,72.83018868
01/05/1998,73.11320755
01/06/1998,73.11320755
01/07/1998,73.39622642
01/08/1998,73.30188679
01/09/1998,73.01886792
01/10/1998,72.83018868
01/11/1998,72.83018868
01/12/1998,72.83018868
01/01/1999,72.83018868
01/02/1999,72.9245283
01/03/1999,73.11320755
01/04/1999,73.39622642
01/05/1999,73.39622642
01/06/1999,73.39622642
01/07/1999,73.77358491
01/08/1999,73.77358491
01/09/1999,73.58490566
01/10/1999,73.49056604
01/11/1999,73.58490566
01/12/1999,73.86792453
01/01/2000,74.05660377
01/02/2000,74.1509434
01/03/2000,74.1509434
01/04/2000,74.1509434
01/05/2000,73.96226415
01/06/2000,74.43396226
01/07/2000,74.71698113
01/08/2000,74.52830189
01/09/2000,74.71698113
01/10/2000,74.62264151
01/11/2000,74.62264151
01/12/2000,75.47169811
01/01/2001,75
01/02/2001,75.47169811
01/03/2001,75.47169811
01/04/2001,75.75471698
01/05/2001,76.13207547
01/06/2001,76.22641509
01/07/2001,76.32075472
01/08/2001,76.13207547
01/09/2001,76.03773585
01/10/2001,75.8490566
01/11/2001,75.66037736
01/12/2001,76.50943396
01/01/2002,76.50943396
01/02/2002,76.79245283
01/03/2002,76.88679245
01/04/2002,76.88679245
01/05/2002,76.98113208
01/06/2002,76.88679245
01/07/2002,77.16981132
01/08/2002,76.98113208
01/09/2002,76.88679245
01/10/2002,76.79245283
01/11/2002,76.50943396
01/12/2002,77.35849057
01/01/2003,77.35849057
01/02/2003,77.73584906
01/03/2003,77.83018868
01/04/2003,77.64150943
01/05/2003,77.45283019
01/06/2003,77.64150943
01/07/2003,77.83018868
01/08/2003,77.83018868
01/09/2003,77.73584906
01/10/2003,77.73584906
01/11/2003,77.54716981
01/12/2003,78.20754717
01/01/2004,78.20754717
01/02/2004,78.39622642
01/03/2004,78.67924528
01/04/2004,78.96226415
01/05/2004,79.1509434
01/06/2004,79.1509434
01/07/2004,79.33962264
01/08/2004,79.52830189
01/09/2004,79.24528302
01/10/2004,79.43396226
01/11/2004,79.05660377
01/12/2004,80
01/01/2005,79.52830189
01/02/2005,79.81132075
01/03/2005,80.09433962
01/04/2005,80.09433962
01/05/2005,80.37735849
01/06/2005,80.47169811
01/07/2005,80.8490566
01/08/2005,81.03773585
01/09/2005,81.32075472
01/10/2005,81.32075472
01/11/2005,80.8490566
01/12/2005,81.69811321
01/01/2006,81.22641509
01/02/2006,81.50943396
01/03/2006,81.60377358
01/04/2006,81.88679245
01/05/2006,82.0754717
01/06/2006,82.16981132
01/07/2006,82.54716981
01/08/2006,82.45283019
01/09/2006,82.0754717
01/10/2006,82.16981132
01/11/2006,82.0754717
01/12/2006,82.83018868
01/01/2007,82.64150943
01/02/2007,83.01886792
01/03/2007,83.20754717
01/04/2007,83.58490566
01/05/2007,83.67924528
01/06/2007,83.77358491
01/07/2007,84.24528302
01/08/2007,84.05660377
01/09/2007,84.24528302
01/10/2007,84.33962264
01/11/2007,84.81132075
01/12/2007,85.37735849
01/01/2008,85.09433962
01/02/2008,85.47169811
01/03/2008,85.94339623
01/04/2008,85.75471698
01/05/2008,86.32075472
01/06/2008,86.60377358
01/07/2008,87.0754717
01/08/2008,86.79245283
01/09/2008,86.79245283
01/10/2008,86.50943396
01/11/2008,86.03773585
01/12/2008,86.32075472
01/01/2009,85.94339623
01/02/2009,86.41509434
01/03/2009,86.22641509
01/04/2009,86.32075472
01/05/2009,86.22641509
01/06/2009,86.60377358
01/07/2009,86.50943396
01/08/2009,86.79245283
01/09/2009,86.41509434
01/10/2009,86.41509434
01/11/2009,86.32075472
01/12/2009,87.0754717
01/01/2010,86.50943396
01/02/2010,86.79245283
01/03/2010,87.26415094
01/04/2010,87.16981132
01/05/2010,87.26415094
01/06/2010,87.35849057
01/07/2010,87.54716981
01/08/2010,87.64150943
01/09/2010,87.45283019
01/10/2010,87.54716981
01/11/2010,87.64150943
01/12/2010,88.67924528
01/01/2011,88.20754717
01/02/2011,88.77358491
01/03/2011,89.33962264
01/04/2011,89.52830189
01/05/2011,89.43396226
01/06/2011,89.43396226
01/07/2011,89.81132075
01/08/2011,89.81132075
01/09/2011,89.90566038
01/10/2011,90
01/11/2011,90
01/12/2011,90.66037736
01/01/2012,90.28301887
01/02/2012,91.03773585
01/03/2012,91.41509434
01/04/2012,91.50943396
01/05/2012,91.32075472
01/06/2012,91.13207547
01/07/2012,91.50943396
01/08/2012,91.88679245
01/09/2012,91.88679245
01/10/2012,91.88679245
01/11/2012,91.69811321
01/12/2012,92.54716981
01/01/2013,91.98113208
01/02/2013,92.64150943
01/03/2013,93.11320755
01/04/2013,92.54716981
01/05/2013,92.73584906
01/06/2013,92.9245283
01/07/2013,93.30188679
01/08/2013,93.30188679
01/09/2013,93.30188679
01/10/2013,93.01886792
01/11/2013,93.20754717
01/12/2013,93.67924528
01/01/2014,93.01886792
01/02/2014,93.58490566
01/03/2014,93.77358491
01/04/2014,93.58490566
01/05/2014,93.39622642
01/06/2014,93.77358491
01/07/2014,93.96226415
01/08/2014,94.05660377
01/09/2014,94.05660377
01/10/2014,93.67924528
01/11/2014,93.67924528
01/12/2014,93.77358491
01/01/2015,92.54716981
01/02/2015,93.39622642
01/03/2015,94.05660377
15/04/2015,94.52830189
01/05/2015,94.90566038
01/06/2015,94.81132075
01/07/2015,95.18867925
01/08/2015,95.09433962
01/09/2015,94.81132075
01/10/2015,94.81132075
01/11/2015,93.86792453
01/12/2015,93.96226415
01/01/2016,92.9245283
01/02/2016,93.30188679
01/03/2016,94.1509434
01/04/2016,94.24528302
01/05/2016,94.81132075
01/06/2016,94.90566038
01/07/2016,95.47169811
01/08/2016,95.37735849
01/09/2016,95.37735849
01/10/2016,95.47169811
01/11/2016,94.62264151
01/12/2016,95.47169811
01/01/2017,94.52830189
01/02/2017,95.28301887
01/03/2017,95.56603774
01/04/2017,96.13207547
01/05/2017,96.03773585
01/06/2017,96.50943396
01/07/2017,97.0754717
01/08/2017,97.16981132
01/09/2017,97.16981132
01/10/2017,96.88679245
01/11/2017,96.22641509
01/12/2017,96.88679245
01/01/2018,95.94339623
01/02/2018,96.41509434
01/03/2018,97.16981132
01/04/2018,97.35849057
01/05/2018,98.39622642
01/06/2018,98.49056604
01/07/2018,99.24528302
01/08/2018,99.24528302
01/09/2018,99.33962264
01/10/2018,99.43396226
01/11/2018,98.30188679
01/12/2018,98.49056604
01/01/2019,97.54716981
01/02/2019,98.01886792
01/03/2019,98.49056604
01/04/2019,99.43396226
01/05/2019,99.71698113
01/06/2019,100
01/07/2019,100.3773585
01/08/2019,100.2830189
01/09/2019,100.1886792
01/10/2019,100.2830189
01/11/2019,99.43396226
01/12/2019,100
01/01/2020,99.1509434
01/02/2020,99.71698113
01/03/2020,99.81132075
01/04/2020,100.1886792
01/05/2020,100.1886792
01/06/2020,100.8490566
01/07/2020,100.3773585
01/08/2020,100.1886792
01/09/2020,99.81132075
01/10/2020,99.81132075
01/11/2020,98.77358491
01/12/2020,99.33962264
01/01/2021,100.754717
01/02/2021,101.3207547
01/03/2021,101.7924528
01/04/2021,102.2641509
01/05/2021,102.5471698
01/06/2021,102.9245283
01/07/2021,103.490566
01/08/2021,103.5849057
01/09/2021,103.8679245
01/10/2021,104.4339623
01/11/2021,104.7169811
01/12/2021,105
01/01/2022,105.9433962
01/02/2022,106.8867925
01/03/2022,109.5283019
01/04/2022,110.2830189
01/05/2022,111.509434
01/06/2022,111.4150943
01/07/2022,112.2641509
01/08/2022,112.7358491
01/09/2022,115.1886792
01/10/2022,116.509434
01/11/2022,116.509434
01/12/2022,115.0943396
01/01/2023,115.6603774
01/02/2023,116.7924528
01/03/2023,118.0188679
01/04/2023,118.6792453
01/05/2023,118.490566
01/06/2023,118.9622642
01/07/2023,119.5283019
01/08/2023,120
01/09/2023,120.1886792
01/10/2023,120
01/11/2023,119.1509434
01/12/2023,119.4339623
01/01/2024,119.245283
01/02/2024,120
01/03/2024,120.754717
01/04/2024,121.509434
01/05/2024,121.7924528
