date,emissions,emission_factor,plan_linear_emissions,plan_emissions
1990,366,764,,
1991,361,764,,
1992,345,730,,
1993,335,726,,
1994,335,722,,
1995,335,713,,
1996,336,685,,
1997,325,669,,
1998,329,671,,
1999,318,647,,
2000,327,644,,
2001,336,659,,
2002,338,654,,
2003,340,636,,
2004,333,616,,
2005,333,612,,
2006,340,606,,
2007,351,625,,
2008,327,581,,
2009,300,569,,
2010,313,557,,
2011,309,568,,
2012,319,571,,
2013,325,571,,
2014,311,557,,
2015,304,528,,
2016,303,522,,
2017,285,488,,
2018,271,472,,
2019,222,408,,
2020,187,364,,
2021,214,407,214,
2022,221,429,199,
2023,173,380,183,
2024,,,168,
2025,,,153,
2026,,,138,
2027,,,122,
2028,,,107,
2029,,,92,
2030,,,76,
2031,,,61,
2032,,,46,
2033,,,31,
2034,,,15,
2035,,,0,0
