months,date,plan,plan_linear,add_plan_linear,ariadne_lead_points,ariadne_lead_linear,ariadne_min,ariadne_max,actual,add_gw,add_mw
Jan-17,15.01.2017,,,,,,,,40.702,0.046,45.865
Feb-17,15.02.2017,,,,,,,,40.849,0.146,146.2
Mrz 17,15.03.2017,,,,,,,,40.963,0.114,114.0
Apr-17,15.04.2017,,,,,,,,41.105,0.142,142.48
Mai 17,15.05.2017,,,,,,,,41.298,0.192,192.46
Jun-17,15.06.2017,,,,,,,,41.51,0.212,212.471
Jul-17,15.07.2017,,,,,,,,41.645,0.135,135.474
Aug-17,15.08.2017,,,,,,,,41.794,0.148,148.104
Sep-17,15.09.2017,,,,,,,,41.899,0.106,105.754
Okt 17,15.10.2017,,,,,,,,42.057,0.157,157.267
Nov-17,15.11.2017,,,,,,,,42.168,0.111,111.301
Dez 17,15.12.2017,,,,,,,,42.322,0.154,154.223
Jan-18,15.01.2018,,,,,,,,42.587,0.265,265.027
Feb-18,15.02.2018,,,,,,,,42.783,0.196,195.506
Mrz 18,15.03.2018,,,,,,,,42.947,0.164,164.463
Apr-18,15.04.2018,,,,,,,,43.17,0.223,223.062
Mai 18,15.05.2018,,,,,,,,43.37,0.199,199.411
Jun-18,15.06.2018,,,,,,,,43.727,0.357,356.966
Jul-18,15.07.2018,,,,,,,,44.036,0.309,309.015
Aug-18,15.08.2018,,,,,,,,44.357,0.321,321.135
Sep-18,15.09.2018,,,,,,,,44.546,0.19,189.669
Okt 18,15.10.2018,,,,,,,,44.738,0.191,191.273
Nov-18,15.11.2018,,,,,,,,44.943,0.205,204.904
Dez 18,15.12.2018,,,,,,,,45.276,0.333,333.004
Jan-19,15.01.2019,,,,,,,,46.109,0.834,833.941
Feb-19,15.02.2019,,,,,,,,46.443,0.333,333.193
Mrz 19,15.03.2019,,,,,,,,46.767,0.324,324.182
Apr-19,15.04.2019,,,,,,,,47.03,0.263,262.726
Mai 19,15.05.2019,,,,,,,,47.293,0.263,263.489
Jun-19,15.06.2019,,,,,,,,47.548,0.255,255.266
Jul-19,15.07.2019,,,,,,,,47.826,0.278,277.705
Aug-19,15.08.2019,,,,,,,,48.163,0.337,337.219
Sep-19,15.09.2019,,,,,,,,48.452,0.288,288.453
Okt 19,15.10.2019,,,,,,,,48.835,0.383,383.093
Nov-19,15.11.2019,,,,,,,,49.043,0.208,207.89
Dez 19,15.12.2019,,,,,,,,49.29,0.247,247.063
Jan-20,15.01.2020,,,,,,,,49.809,0.519,519.078
Feb-20,15.02.2020,,,,,,,,50.11,0.301,300.95
Mrz 20,15.03.2020,,,,,,,,50.472,0.362,362.337
Apr-20,15.04.2020,,,,,,,,50.854,0.382,382.152
Mai 20,15.05.2020,,,,,,,,51.328,0.474,474.139
Jun-20,15.06.2020,,,,,,,,51.787,0.458,458.288
Jul-20,15.07.2020,,,,,,,,52.208,0.422,421.685
Aug-20,15.08.2020,,,,,,,,52.607,0.399,398.986
Sep-20,15.09.2020,,,,,,,,52.993,0.385,385.414
Okt 20,15.10.2020,,,,,,,,53.412,0.419,418.726
Nov-20,15.11.2020,,,,,,,,53.922,0.51,510.311
Dez 20,15.12.2020,,,,56.47,56.47,54.744,56.47,54.445,0.523,523.182
Jan-21,15.01.2021,,,,,57.177,55.395,57.25,54.842,0.397,397.07
Feb-21,15.02.2021,,,,,57.884,56.046,58.029,55.23,0.388,387.883
Mrz 21,15.03.2021,,,,,58.592,56.697,58.809,55.911,0.681,681.366
Apr-21,15.04.2021,,,,,59.299,57.348,59.588,56.516,0.605,605.039
Mai 21,15.05.2021,,,,,60.006,57.999,60.368,56.915,0.398,398.401
Jun-21,15.06.2021,,,,,60.713,58.65,61.147,57.368,0.454,453.581
Jul-21,15.07.2021,,,,,61.42,59.302,61.927,57.891,0.523,522.931
Aug-21,15.08.2021,,,,,62.127,59.953,62.707,58.301,0.409,409.281
Sep-21,15.09.2021,,,,,62.835,60.604,63.486,58.77,0.47,469.781
Okt 21,15.10.2021,,,,,63.542,61.255,64.266,59.193,0.423,423.138
Nov-21,15.11.2021,,,,,64.249,61.906,65.045,59.558,0.364,364.244
Dez 21,15.12.2021,,,,,64.956,62.557,65.825,60.156,0.598,598.394
Jan-22,15.01.2022,,60.592,0.492,,65.663,63.208,66.604,60.663,0.507,506.555
Feb-22,15.02.2022,,61.083,0.492,,66.37,63.859,67.384,61.363,0.7,700.227
Mrz 22,15.03.2022,,61.575,0.492,,67.078,64.51,68.164,62.208,0.845,845.311
Apr-22,15.04.2022,,62.067,0.492,,67.785,65.161,68.943,62.696,0.488,487.519
Mai 22,15.05.2022,,62.558,0.492,,68.492,65.812,69.723,63.351,0.655,655.458
Jun-22,15.06.2022,,63.05,0.492,,69.199,66.464,70.502,63.916,0.564,564.465
Jul-22,15.07.2022,,63.542,0.492,,69.906,67.115,71.282,64.415,0.499,498.961
Aug-22,15.08.2022,,64.033,0.492,,70.613,67.766,72.061,65.111,0.697,696.597
Sep-22,15.09.2022,,64.525,0.492,,71.321,68.417,72.841,65.959,0.848,848.035
Okt 22,15.10.2022,,65.017,0.492,,72.028,69.068,73.621,66.585,0.625,625.361
Nov-22,15.11.2022,,65.508,0.492,,72.735,69.719,74.4,67.243,0.658,658.349
Dez 22,15.12.2022,,66.0,0.492,,73.442,70.37,75.18,67.71,0.467,467.155
Jan-23,15.01.2023,,66.75,0.75,,74.149,71.021,75.959,68.722,1.012,1012.147
Feb-23,15.02.2023,,67.5,0.75,,74.856,71.672,76.739,69.648,0.925,925.269
Mrz 23,15.03.2023,,68.25,0.75,,75.564,72.323,77.518,70.914,1.267,1266.743
Apr-23,15.04.2023,,69.0,0.75,,76.271,72.975,78.298,72.097,1.183,1182.826
Mai 23,15.05.2023,,69.75,0.75,,76.978,73.626,79.078,73.44,1.343,1342.769
Jun-23,15.06.2023,,70.5,0.75,,77.685,74.277,79.857,74.824,1.384,1383.795
Jul-23,15.07.2023,,71.25,0.75,,78.392,74.928,80.637,76.316,1.492,1492.321
Aug-23,15.08.2023,,72.0,0.75,,79.099,75.579,81.416,77.697,1.381,1381.49
Sep-23,15.09.2023,,72.75,0.75,,79.807,76.23,82.196,78.914,1.216,1216.099
Okt 23,15.10.2023,,73.5,0.75,,80.514,76.881,82.975,80.427,1.513,1513.017
Nov-23,15.11.2023,,74.25,0.75,,81.221,77.532,83.755,81.856,1.429,1429.006
Dez 23,15.12.2023,,75.0,0.75,,81.928,78.183,84.535,83.018,1.162,1162.385
Jan-24,15.01.2024,,76.083,1.083,,82.635,78.834,85.314,84.612,1.594,1593.672
Feb-24,15.02.2024,,77.167,1.083,,83.342,79.485,86.094,85.846,1.234,1233.877
Mrz 24,15.03.2024,,78.25,1.083,,84.05,80.137,86.873,87.235,1.389,1389.105
Apr-24,15.04.2024,,79.333,1.083,,84.757,80.788,87.653,88.54,1.306,1305.504
Mai 24,15.05.2024,,80.417,1.083,,85.464,81.439,88.432,89.741,1.201,1201.214
Jun-24,15.06.2024,,81.5,1.083,,86.171,82.09,89.212,91.169,1.427,1427.438
Jul-24,15.07.2024,,82.583,1.083,,86.878,82.741,89.992,92.786,1.617,1616.84
Aug-24,15.08.2024,,83.667,1.083,,87.585,83.392,90.771,93.788,1.003,1002.834
Sep-24,15.09.2024,,84.75,1.083,,88.293,84.043,91.551,95.008,1.219,1219.306
Okt 24,15.10.2024,,85.833,1.083,,89.0,84.694,92.33,96.655,1.647,1647.087
Nov-24,15.11.2024,,86.917,1.083,,89.707,85.345,93.11,97.736,1.081,1081.235
Dez 24,15.12.2024,88.0,88.0,1.083,,90.414,85.996,93.889,99.144,1.408,1407.532
Jan-25,15.01.2025,,89.5,1.5,,91.121,86.647,94.669,99.236,0.093,92.526
Feb-25,15.02.2025,,91.0,1.5,,91.828,87.299,95.448,,0.0,0.0
Mrz 25,15.03.2025,,92.5,1.5,,92.536,87.95,96.228,,0.0,0.0
Apr-25,15.04.2025,,94.0,1.5,,93.243,88.601,97.008,,0.0,0.0
Mai 25,15.05.2025,,95.5,1.5,,93.95,89.252,97.787,,0.0,0.0
Jun-25,15.06.2025,,97.0,1.5,,94.657,89.903,98.567,,0.0,0.0
Jul-25,15.07.2025,,98.5,1.5,,95.364,90.554,99.346,,0.0,0.0
Aug-25,15.08.2025,,100.0,1.5,,96.071,91.205,100.126,,0.0,0.0
Sep-25,15.09.2025,,101.5,1.5,,96.779,91.856,100.905,,0.0,0.0
Okt 25,15.10.2025,,103.0,1.5,,97.486,92.507,101.685,,0.0,0.0
Nov-25,15.11.2025,,104.5,1.5,,98.193,93.158,102.465,,0.0,0.0
Dez 25,15.12.2025,,106.0,1.5,98.9,98.9,93.809,103.244,,0.0,0.0
Jan-26,15.01.2026,,107.833,1.833,,100.888,94.991,105.211,,,
Feb-26,15.02.2026,,109.667,1.833,,102.875,96.172,107.178,,,
Mrz 26,15.03.2026,,111.5,1.833,,104.863,97.354,109.145,,,
Apr-26,15.04.2026,,113.333,1.833,,106.851,98.535,111.112,,,
Mai 26,15.05.2026,,115.167,1.833,,108.838,99.717,113.078,,,
Jun-26,15.06.2026,,117.0,1.833,,110.826,100.898,115.045,,,
Jul-26,15.07.2026,,118.833,1.833,,112.814,102.079,117.012,,,
Aug-26,15.08.2026,,120.667,1.833,,114.801,103.261,118.979,,,
Sep-26,15.09.2026,,122.5,1.833,,116.789,104.442,120.946,,,
Okt 26,15.10.2026,,124.333,1.833,,118.777,105.624,122.912,,,
Nov-26,15.11.2026,,126.167,1.833,,120.764,106.805,124.879,,,
Dez 26,15.12.2026,128.0,128.0,1.833,,122.752,107.987,126.846,,,
Jan-27,15.01.2027,,129.833,1.833,,124.74,109.168,128.813,,,
Feb-27,15.02.2027,,131.667,1.833,,126.727,110.349,130.78,,,
Mrz 27,15.03.2027,,133.5,1.833,,128.715,111.531,132.747,,,
Apr-27,15.04.2027,,135.333,1.833,,130.703,112.712,134.713,,,
Mai 27,15.05.2027,,137.167,1.833,,132.69,113.894,136.68,,,
Jun-27,15.06.2027,,139.0,1.833,,134.678,115.075,138.647,,,
Jul-27,15.07.2027,,140.833,1.833,,136.666,116.256,140.614,,,
Aug-27,15.08.2027,,142.667,1.833,,138.653,117.438,142.581,,,
Sep-27,15.09.2027,,144.5,1.833,,140.641,118.619,144.548,,,
Okt 27,15.10.2027,,146.333,1.833,,142.629,119.801,146.514,,,
Nov-27,15.11.2027,,148.167,1.833,,144.616,120.982,148.481,,,
Dez 27,15.12.2027,,150.0,1.833,,146.604,122.164,150.448,,,
Jan-28,15.01.2028,,151.833,1.833,,148.591,123.345,152.415,,,
Feb-28,15.02.2028,,153.667,1.833,,150.579,124.526,154.382,,,
Mrz 28,15.03.2028,,155.5,1.833,,152.567,125.708,156.349,,,
Apr-28,15.04.2028,,157.333,1.833,,154.554,126.889,158.315,,,
Mai 28,15.05.2028,,159.167,1.833,,156.542,128.071,160.282,,,
Jun-28,15.06.2028,,161.0,1.833,,158.53,129.252,162.249,,,
Jul-28,15.07.2028,,162.833,1.833,,160.517,130.433,164.216,,,
Aug-28,15.08.2028,,164.667,1.833,,162.505,131.615,166.183,,,
Sep-28,15.09.2028,,166.5,1.833,,164.493,132.796,168.15,,,
Okt 28,15.10.2028,,168.333,1.833,,166.48,133.978,170.116,,,
Nov-28,15.11.2028,,170.167,1.833,,168.468,135.159,172.083,,,
Dez 28,15.12.2028,172.0,172.0,1.833,,170.456,136.341,174.05,,,
Jan-29,15.01.2029,,173.792,1.792,,172.443,137.522,176.017,,,
Feb-29,15.02.2029,,175.583,1.792,,174.431,138.703,177.984,,,
Mrz 29,15.03.2029,,177.375,1.792,,176.419,139.885,179.951,,,
Apr-29,15.04.2029,,179.167,1.792,,178.406,141.066,181.917,,,
Mai 29,15.05.2029,,180.958,1.792,,180.394,142.248,183.884,,,
Jun-29,15.06.2029,,182.75,1.792,,182.382,143.429,185.851,,,
Jul-29,15.07.2029,,184.542,1.792,,184.369,144.611,187.818,,,
Aug-29,15.08.2029,,186.333,1.792,,186.357,145.792,189.785,,,
Sep-29,15.09.2029,,188.125,1.792,,188.345,146.973,191.752,,,
Okt 29,15.10.2029,,189.917,1.792,,190.332,148.155,193.718,,,
Nov-29,15.11.2029,,191.708,1.792,,192.32,149.336,195.685,,,
Dez 29,15.12.2029,,193.5,1.792,,194.308,150.518,197.652,,,
Jan-30,15.01.2030,,195.292,1.792,,196.295,151.699,199.619,,,
Feb-30,15.02.2030,,197.083,1.792,,198.283,152.88,201.586,,,
Mrz 30,15.03.2030,,198.875,1.792,,200.271,154.062,203.553,,,
Apr-30,15.04.2030,,200.667,1.792,,202.258,155.243,205.519,,,
Mai 30,15.05.2030,,202.458,1.792,,204.246,156.425,207.486,,,
Jun-30,15.06.2030,,204.25,1.792,,206.234,157.606,209.453,,,
Jul-30,15.07.2030,,206.042,1.792,,208.221,158.788,211.42,,,
Aug-30,15.08.2030,,207.833,1.792,,210.209,159.969,213.387,,,
Sep-30,15.09.2030,,209.625,1.792,,212.197,161.15,215.354,,,
Okt 30,15.10.2030,,211.417,1.792,,214.184,162.332,217.32,,,
Nov-30,15.11.2030,,213.208,1.792,,216.172,163.513,219.287,,,
Dez 30,15.12.2030,215.0,215.0,1.792,218.16,218.16,164.695,221.254,,,
Jan-31,15.01.2031,,216.567,1.567,,219.794,166.056,223.064,,,
Feb-31,15.02.2031,,218.133,1.567,,221.428,167.418,224.874,,,
Mrz 31,15.03.2031,,219.7,1.567,,223.061,168.779,226.685,,,
Apr-31,15.04.2031,,221.267,1.567,,224.695,170.141,228.495,,,
Mai 31,15.05.2031,,222.833,1.567,,226.329,171.503,230.305,,,
Jun-31,15.06.2031,,224.4,1.567,,227.963,172.864,232.115,,,
Jul-31,15.07.2031,,225.967,1.567,,229.597,174.226,233.926,,,
Aug-31,15.08.2031,,227.533,1.567,,231.231,175.587,235.736,,,
Sep-31,15.09.2031,,229.1,1.567,,232.865,176.949,237.546,,,
Okt 31,15.10.2031,,230.667,1.567,,234.499,178.31,239.356,,,
Nov-31,15.11.2031,,232.233,1.567,,236.133,179.672,241.167,,,
Dez 31,15.12.2031,,233.8,1.567,,237.767,181.034,242.977,,,
Jan-32,15.01.2032,,235.367,1.567,,239.401,182.395,244.787,,,
Feb-32,15.02.2032,,236.933,1.567,,241.035,183.757,246.597,,,
Mrz 32,15.03.2032,,238.5,1.567,,242.669,185.118,248.408,,,
Apr-32,15.04.2032,,240.067,1.567,,244.303,186.48,250.218,,,
Mai 32,15.05.2032,,241.633,1.567,,245.937,187.841,252.028,,,
Jun-32,15.06.2032,,243.2,1.567,,247.571,189.203,253.838,,,
Jul-32,15.07.2032,,244.767,1.567,,249.205,190.564,255.649,,,
Aug-32,15.08.2032,,246.333,1.567,,250.839,191.926,257.459,,,
Sep-32,15.09.2032,,247.9,1.567,,252.473,193.288,259.269,,,
Okt 32,15.10.2032,,249.467,1.567,,254.107,194.649,261.079,,,
Nov-32,15.11.2032,,251.033,1.567,,255.741,196.011,262.89,,,
Dez 32,15.12.2032,,252.6,1.567,,257.375,197.372,264.7,,,
Jan-33,15.01.2033,,254.167,1.567,,259.009,198.734,266.51,,,
Feb-33,15.02.2033,,255.733,1.567,,260.643,200.095,268.32,,,
Mrz 33,15.03.2033,,257.3,1.567,,262.277,201.457,270.131,,,
Apr-33,15.04.2033,,258.867,1.567,,263.911,202.819,271.941,,,
Mai 33,15.05.2033,,260.433,1.567,,265.545,204.18,273.751,,,
Jun-33,15.06.2033,,262.0,1.567,,267.179,205.542,275.561,,,
Jul-33,15.07.2033,,263.567,1.567,,268.813,206.903,277.372,,,
Aug-33,15.08.2033,,265.133,1.567,,270.447,208.265,279.182,,,
Sep-33,15.09.2033,,266.7,1.567,,272.081,209.626,280.992,,,
Okt 33,15.10.2033,,268.267,1.567,,273.715,210.988,282.802,,,
Nov-33,15.11.2033,,269.833,1.567,,275.349,212.35,284.613,,,
Dez 33,15.12.2033,,271.4,1.567,,276.983,213.711,286.423,,,
Jan-34,15.01.2034,,272.967,1.567,,278.617,215.073,288.233,,,
Feb-34,15.02.2034,,274.533,1.567,,280.251,216.434,290.043,,,
Mrz 34,15.03.2034,,276.1,1.567,,281.885,217.796,291.854,,,
Apr-34,15.04.2034,,277.667,1.567,,283.519,219.157,293.664,,,
Mai 34,15.05.2034,,279.233,1.567,,285.153,220.519,295.474,,,
Jun-34,15.06.2034,,280.8,1.567,,286.787,221.881,297.284,,,
Jul-34,15.07.2034,,282.367,1.567,,288.421,223.242,299.095,,,
Aug-34,15.08.2034,,283.933,1.567,,290.055,224.604,300.905,,,
Sep-34,15.09.2034,,285.5,1.567,,291.689,225.965,302.715,,,
Okt 34,15.10.2034,,287.067,1.567,,293.323,227.327,304.525,,,
Nov-34,15.11.2034,,288.633,1.567,,294.957,228.688,306.336,,,
Dez 34,15.12.2034,,290.2,1.567,,296.591,230.05,308.146,,,
Jan-35,15.01.2035,,291.767,1.567,,298.225,231.411,309.956,,,
Feb-35,15.02.2035,,293.333,1.567,,299.859,232.773,311.766,,,
Mrz 35,15.03.2035,,294.9,1.567,,301.493,234.135,313.577,,,
Apr-35,15.04.2035,,296.467,1.567,,303.127,235.496,315.387,,,
Mai 35,15.05.2035,,298.033,1.567,,304.761,236.858,317.197,,,
Jun-35,15.06.2035,,299.6,1.567,,306.395,238.219,319.007,,,
Jul-35,15.07.2035,,301.167,1.567,,308.029,239.581,320.818,,,
Aug-35,15.08.2035,,302.733,1.567,,309.663,240.942,322.628,,,
Sep-35,15.09.2035,,304.3,1.567,,311.297,242.304,324.438,,,
Okt 35,15.10.2035,,305.867,1.567,,312.931,243.666,326.248,,,
Nov-35,15.11.2035,,307.433,1.567,,314.565,245.027,328.059,,,
Dez 35,15.12.2035,309.0,309.0,1.567,316.199,316.199,246.389,329.869,,,
Jan-36,15.01.2036,,310.517,1.517,,316.598,247.13,330.47,,,
Feb-36,15.02.2036,,312.033,1.517,,316.998,247.871,331.072,,,
Mrz 36,15.03.2036,,313.55,1.517,,317.397,248.612,331.674,,,
Apr-36,15.04.2036,,315.067,1.517,,317.797,249.353,332.275,,,
Mai 36,15.05.2036,,316.583,1.517,,318.197,250.094,332.877,,,
Jun-36,15.06.2036,,318.1,1.517,,318.596,250.836,333.479,,,
Jul-36,15.07.2036,,319.617,1.517,,318.996,251.577,334.08,,,
Aug-36,15.08.2036,,321.133,1.517,,319.395,252.318,334.682,,,
Sep-36,15.09.2036,,322.65,1.517,,319.795,253.059,335.283,,,
Okt 36,15.10.2036,,324.167,1.517,,320.194,253.8,335.885,,,
Nov-36,15.11.2036,,325.683,1.517,,320.594,254.541,336.487,,,
Dez 36,15.12.2036,,327.2,1.517,,320.993,255.282,337.088,,,
Jan-37,15.01.2037,,328.717,1.517,,321.393,256.024,337.69,,,
Feb-37,15.02.2037,,330.233,1.517,,321.792,256.765,338.292,,,
Mrz 37,15.03.2037,,331.75,1.517,,322.192,257.506,338.893,,,
Apr-37,15.04.2037,,333.267,1.517,,322.592,258.247,339.495,,,
Mai 37,15.05.2037,,334.783,1.517,,322.991,258.988,340.096,,,
Jun-37,15.06.2037,,336.3,1.517,,323.391,259.729,340.698,,,
Jul-37,15.07.2037,,337.817,1.517,,323.79,260.47,341.3,,,
Aug-37,15.08.2037,,339.333,1.517,,324.19,261.211,341.901,,,
Sep-37,15.09.2037,,340.85,1.517,,324.589,261.953,342.503,,,
Okt 37,15.10.2037,,342.367,1.517,,324.989,262.694,343.105,,,
Nov-37,15.11.2037,,343.883,1.517,,325.388,263.435,343.706,,,
Dez 37,15.12.2037,,345.4,1.517,,325.788,264.176,344.308,,,
Jan-38,15.01.2038,,346.917,1.517,,326.187,264.917,344.909,,,
Feb-38,15.02.2038,,348.433,1.517,,326.587,265.658,345.511,,,
Mrz 38,15.03.2038,,349.95,1.517,,326.987,266.399,346.113,,,
Apr-38,15.04.2038,,351.467,1.517,,327.386,267.141,346.714,,,
Mai 38,15.05.2038,,352.983,1.517,,327.786,267.882,347.316,,,
Jun-38,15.06.2038,,354.5,1.517,,328.185,268.623,347.918,,,
Jul-38,15.07.2038,,356.017,1.517,,328.585,269.364,348.519,,,
Aug-38,15.08.2038,,357.533,1.517,,328.984,270.105,349.121,,,
Sep-38,15.09.2038,,359.05,1.517,,329.384,270.846,349.722,,,
Okt 38,15.10.2038,,360.567,1.517,,329.783,271.587,350.324,,,
Nov-38,15.11.2038,,362.083,1.517,,330.183,272.329,350.926,,,
Dez 38,15.12.2038,,363.6,1.517,,330.582,273.07,351.527,,,
Jan-39,15.01.2039,,365.117,1.517,,330.982,273.811,352.129,,,
Feb-39,15.02.2039,,366.633,1.517,,331.381,274.552,352.731,,,
Mrz 39,15.03.2039,,368.15,1.517,,331.781,275.293,353.332,,,
Apr-39,15.04.2039,,369.667,1.517,,332.181,276.034,353.934,,,
Mai 39,15.05.2039,,371.183,1.517,,332.58,276.775,354.535,,,
Jun-39,15.06.2039,,372.7,1.517,,332.98,277.516,355.137,,,
Jul-39,15.07.2039,,374.217,1.517,,333.379,278.258,355.739,,,
Aug-39,15.08.2039,,375.733,1.517,,333.779,278.999,356.34,,,
Sep-39,15.09.2039,,377.25,1.517,,334.178,279.74,356.942,,,
Okt 39,15.10.2039,,378.767,1.517,,334.578,280.481,357.544,,,
Nov-39,15.11.2039,,380.283,1.517,,334.977,281.222,358.145,,,
Dez 39,15.12.2039,,381.8,1.517,,335.377,281.963,358.747,,,
Jan-40,15.01.2040,,383.317,1.517,,335.776,282.704,359.348,,,
Feb-40,15.02.2040,,384.833,1.517,,336.176,283.446,359.95,,,
Mrz 40,15.03.2040,,386.35,1.517,,336.576,284.187,360.552,,,
Apr-40,15.04.2040,,387.867,1.517,,336.975,284.928,361.153,,,
Mai 40,15.05.2040,,389.383,1.517,,337.375,285.669,361.755,,,
Jun-40,15.06.2040,,390.9,1.517,,337.774,286.41,362.356,,,
Jul-40,15.07.2040,,392.417,1.517,,338.174,287.151,362.958,,,
Aug-40,15.08.2040,,393.933,1.517,,338.573,287.892,363.56,,,
Sep-40,15.09.2040,,395.45,1.517,,338.973,288.634,364.161,,,
Okt 40,15.10.2040,,396.967,1.517,,339.372,289.375,364.763,,,
Nov-40,15.11.2040,,398.483,1.517,,339.772,290.116,365.365,,,
Dez 40,15.12.2040,400.0,400.0,1.517,340.171,340.171,290.857,365.966,,,
Jan-41,15.01.2041,,400.0,0.0,,339.989,290.567,367.472,,,
Feb-41,15.02.2041,,400.0,0.0,,339.807,290.278,368.978,,,
Mrz 41,15.03.2041,,400.0,0.0,,339.624,289.988,370.483,,,
Apr-41,15.04.2041,,400.0,0.0,,339.442,289.699,371.989,,,
Mai 41,15.05.2041,,400.0,0.0,,339.26,289.409,373.495,,,
Jun-41,15.06.2041,,400.0,0.0,,339.077,289.12,375.0,,,
Jul-41,15.07.2041,,400.0,0.0,,338.895,288.83,376.506,,,
Aug-41,15.08.2041,,400.0,0.0,,338.712,288.541,378.012,,,
Sep-41,15.09.2041,,400.0,0.0,,338.53,288.251,379.517,,,
Okt 41,15.10.2041,,400.0,0.0,,338.348,287.962,381.023,,,
Nov-41,15.11.2041,,400.0,0.0,,338.165,287.672,382.529,,,
Dez 41,15.12.2041,,400.0,0.0,,337.983,287.383,384.034,,,
Jan-42,15.01.2042,,400.0,0.0,,337.8,287.093,385.54,,,
Feb-42,15.02.2042,,400.0,0.0,,337.618,286.804,387.046,,,
Mrz 42,15.03.2042,,400.0,0.0,,337.436,286.514,388.551,,,
Apr-42,15.04.2042,,400.0,0.0,,337.253,286.225,390.057,,,
Mai 42,15.05.2042,,400.0,0.0,,337.071,285.935,391.563,,,
Jun-42,15.06.2042,,400.0,0.0,,336.888,285.646,393.068,,,
Jul-42,15.07.2042,,400.0,0.0,,336.706,285.356,394.574,,,
Aug-42,15.08.2042,,400.0,0.0,,336.524,285.067,396.08,,,
Sep-42,15.09.2042,,400.0,0.0,,336.341,284.777,397.585,,,
Okt 42,15.10.2042,,400.0,0.0,,336.159,284.488,399.091,,,
Nov-42,15.11.2042,,400.0,0.0,,335.977,284.198,400.597,,,
Dez 42,15.12.2042,,400.0,0.0,,335.794,283.909,402.102,,,
Jan-43,15.01.2043,,400.0,0.0,,335.612,283.619,403.608,,,
Feb-43,15.02.2043,,400.0,0.0,,335.429,283.33,405.114,,,
Mrz 43,15.03.2043,,400.0,0.0,,335.247,283.04,406.619,,,
Apr-43,15.04.2043,,400.0,0.0,,335.065,282.751,408.125,,,
Mai 43,15.05.2043,,400.0,0.0,,334.882,282.462,409.631,,,
Jun-43,15.06.2043,,400.0,0.0,,334.7,282.172,411.136,,,
Jul-43,15.07.2043,,400.0,0.0,,334.517,281.883,412.642,,,
Aug-43,15.08.2043,,400.0,0.0,,334.335,281.593,414.148,,,
Sep-43,15.09.2043,,400.0,0.0,,334.153,281.304,415.653,,,
Okt 43,15.10.2043,,400.0,0.0,,333.97,281.014,417.159,,,
Nov-43,15.11.2043,,400.0,0.0,,333.788,280.725,418.665,,,
Dez 43,15.12.2043,,400.0,0.0,,333.605,280.435,420.17,,,
Jan-44,15.01.2044,,400.0,0.0,,333.423,280.146,421.676,,,
Feb-44,15.02.2044,,400.0,0.0,,333.241,279.856,423.182,,,
Mrz 44,15.03.2044,,400.0,0.0,,333.058,279.567,424.687,,,
Apr-44,15.04.2044,,400.0,0.0,,332.876,279.277,426.193,,,
Mai 44,15.05.2044,,400.0,0.0,,332.694,278.988,427.699,,,
Jun-44,15.06.2044,,400.0,0.0,,332.511,278.698,429.204,,,
Jul-44,15.07.2044,,400.0,0.0,,332.329,278.409,430.71,,,
Aug-44,15.08.2044,,400.0,0.0,,332.146,278.119,432.216,,,
Sep-44,15.09.2044,,400.0,0.0,,331.964,277.83,433.721,,,
Okt 44,15.10.2044,,400.0,0.0,,331.782,277.54,435.227,,,
Nov-44,15.11.2044,,400.0,0.0,,331.599,277.251,436.733,,,
Dez 44,15.12.2044,,400.0,0.0,,331.417,276.961,438.238,,,
Jan-45,15.01.2045,,400.0,0.0,,331.234,276.672,439.744,,,
Feb-45,15.02.2045,,400.0,0.0,,331.052,276.382,441.25,,,
Mrz 45,15.03.2045,,400.0,0.0,,330.87,276.093,442.755,,,
Apr-45,15.04.2045,,400.0,0.0,,330.687,275.803,444.261,,,
Mai 45,15.05.2045,,400.0,0.0,,330.505,275.514,445.767,,,
Jun-45,15.06.2045,,400.0,0.0,,330.322,275.224,447.272,,,
Jul-45,15.07.2045,,400.0,0.0,,330.14,274.935,448.778,,,
Aug-45,15.08.2045,,400.0,0.0,,329.958,274.645,450.284,,,
Sep-45,15.09.2045,,400.0,0.0,,329.775,274.356,451.789,,,
Okt 45,15.10.2045,,400.0,0.0,,329.593,274.066,453.295,,,
Nov-45,15.11.2045,,400.0,0.0,,329.411,273.777,454.801,,,
Dez 45,15.12.2045,400.0,400.0,0.0,329.228,329.228,273.487,456.306,,,
