﻿Monat,Subventionstyp,Lage,Zubau,Rückbau,Netto
01/09/2023,EEG-Ausschreibung,Baul. Anlage,29.231895,0,29.231895
01/10/2023,EEG-Ausschreibung,Baul. Anlage,24.137391,0,24.137391
01/11/2023,EEG-Ausschreibung,Baul. Anlage,29.24062,0,29.24062
01/12/2023,EEG-Ausschreibung,Baul. Anlage,40.9861,0,40.9861
01/01/2024,EEG-Ausschreibung,Baul. Anlage,29.16196,0,29.16196
01/02/2024,EEG-Ausschreibung,Baul. Anlage,33.769505,0,33.769505
01/03/2024,EEG-Ausschreibung,Baul. Anlage,26.643295,0,26.643295
01/04/2024,EEG-Ausschreibung,Baul. Anlage,30.4119,0,30.4119
01/05/2024,EEG-Ausschreibung,Baul. Anlage,26.558095,0,26.558095
01/06/2024,EEG-Ausschreibung,Baul. Anlage,20.387065,0,20.387065
01/07/2024,EEG-Ausschreibung,Baul. Anlage,12.555795,0,12.555795
01/08/2024,EEG-Ausschreibung,Baul. Anlage,26.19956,0,26.19956
01/09/2023,EEG-Ausschreibung,Freifläche,113.08915,0,113.08915
01/10/2023,EEG-Ausschreibung,Freifläche,521.61916,0,521.61916
01/11/2023,EEG-Ausschreibung,Freifläche,421.66034,0,421.66034
01/12/2023,EEG-Ausschreibung,Freifläche,226.892725,0,226.892725
01/01/2024,EEG-Ausschreibung,Freifläche,207.4063,7.98336,199.42294
01/02/2024,EEG-Ausschreibung,Freifläche,169.468795,0,169.468795
01/03/2024,EEG-Ausschreibung,Freifläche,375.99643,0,375.99643
01/04/2024,EEG-Ausschreibung,Freifläche,328.39979,0,328.39979
01/05/2024,EEG-Ausschreibung,Freifläche,255.98308,0,255.98308
01/06/2024,EEG-Ausschreibung,Freifläche,339.942592,0,339.942592
01/07/2024,EEG-Ausschreibung,Freifläche,371.637915,0,371.637915
01/08/2024,EEG-Ausschreibung,Freifläche,154.427055,0,154.427055
01/09/2023,Gesetzliche EEG-Förderung,Baul. Anlage,932.471304,2.051291,930.420013
01/10/2023,Gesetzliche EEG-Förderung,Baul. Anlage,836.662571,2.087589,834.574982
01/11/2023,Gesetzliche EEG-Förderung,Baul. Anlage,824.825525,2.071128,822.754397
01/12/2023,Gesetzliche EEG-Förderung,Baul. Anlage,626.172641,3.070403,623.102238
01/01/2024,Gesetzliche EEG-Förderung,Baul. Anlage,1131.161424,2.381537,1128.779887
01/02/2024,Gesetzliche EEG-Förderung,Baul. Anlage,596.107411,2.151235,593.956176
01/03/2024,Gesetzliche EEG-Förderung,Baul. Anlage,728.760638,2.226537,726.534101
01/04/2024,Gesetzliche EEG-Förderung,Baul. Anlage,778.955995,2.426262,776.529733
01/05/2024,Gesetzliche EEG-Förderung,Baul. Anlage,755.165936,2.49426,752.671676
01/06/2024,Gesetzliche EEG-Förderung,Baul. Anlage,804.542109,2.504028,802.038081
01/07/2024,Gesetzliche EEG-Förderung,Baul. Anlage,919.372065,2.632791,916.739274
01/08/2024,Gesetzliche EEG-Förderung,Baul. Anlage,518.855735,1.869041,516.986694
01/09/2023,Gesetzliche EEG-Förderung,Freifläche,25.541038,0.01094,25.530098
01/10/2023,Gesetzliche EEG-Förderung,Freifläche,31.088827,0.0012,31.087627
01/11/2023,Gesetzliche EEG-Förderung,Freifläche,21.58541,0.01876,21.56665
01/12/2023,Gesetzliche EEG-Förderung,Freifläche,27.09494,0,27.09494
01/01/2024,Gesetzliche EEG-Förderung,Freifläche,85.28411,0.1061,85.17801
01/02/2024,Gesetzliche EEG-Förderung,Freifläche,14.76921,0.011,14.75821
01/03/2024,Gesetzliche EEG-Förderung,Freifläche,17.52734,0.00134,17.526
01/04/2024,Gesetzliche EEG-Förderung,Freifläche,33.49528,0.0033,33.49198
01/05/2024,Gesetzliche EEG-Förderung,Freifläche,24.089457,0.007705,24.081752
01/06/2024,Gesetzliche EEG-Förderung,Freifläche,49.921341,0.00589,49.915451
01/07/2024,Gesetzliche EEG-Förderung,Freifläche,56.28468,0.00922,56.27546
01/08/2024,Gesetzliche EEG-Förderung,Freifläche,21.09579,0.0041,21.09169
01/09/2023,Gesetzliche EEG-Förderung,Mieterstrom,0,0,0
01/10/2023,Gesetzliche EEG-Förderung,Mieterstrom,0,0,0
01/11/2023,Gesetzliche EEG-Förderung,Mieterstrom,0,0.01145,-0.01145
01/12/2023,Gesetzliche EEG-Förderung,Mieterstrom,0,0,0
01/01/2024,Gesetzliche EEG-Förderung,Mieterstrom,0,0,0
01/02/2024,Gesetzliche EEG-Förderung,Mieterstrom,0,0,0
01/03/2024,Gesetzliche EEG-Förderung,Mieterstrom,0,0,0
01/04/2024,Gesetzliche EEG-Förderung,Mieterstrom,0,0,0
01/05/2024,Gesetzliche EEG-Förderung,Mieterstrom,0,0,0
01/06/2024,Gesetzliche EEG-Förderung,Mieterstrom,0,0,0
01/07/2024,Gesetzliche EEG-Förderung,Mieterstrom,0,0,0
01/08/2024,Gesetzliche EEG-Förderung,Mieterstrom,0,0,0
01/09/2023,Ungeförderte Anlagen *,Baul. Anlage,31.62115,0,31.62115
01/10/2023,Ungeförderte Anlagen *,Baul. Anlage,34.92966,0,34.92966
01/11/2023,Ungeförderte Anlagen *,Baul. Anlage,19.31487,0,19.31487
01/12/2023,Ungeförderte Anlagen *,Baul. Anlage,26.137125,0,26.137125
01/01/2024,Ungeförderte Anlagen *,Baul. Anlage,14.70551,0,14.70551
01/02/2024,Ungeförderte Anlagen *,Baul. Anlage,35.294115,0,35.294115
01/03/2024,Ungeförderte Anlagen *,Baul. Anlage,18.178535,0,18.178535
01/04/2024,Ungeförderte Anlagen *,Baul. Anlage,21.39438,0,21.39438
01/05/2024,Ungeförderte Anlagen *,Baul. Anlage,18.425115,0,18.425115
01/06/2024,Ungeförderte Anlagen *,Baul. Anlage,10.94163,0,10.94163
01/07/2024,Ungeförderte Anlagen *,Baul. Anlage,16.77893,0,16.77893
01/08/2024,Ungeförderte Anlagen *,Baul. Anlage,8.776635,0,8.776635
01/09/2023,Ungeförderte Anlagen *,Freifläche,78.557955,0,78.557955
01/10/2023,Ungeförderte Anlagen *,Freifläche,38.41163,0,38.41163
01/11/2023,Ungeförderte Anlagen *,Freifläche,99.79863,0,99.79863
01/12/2023,Ungeförderte Anlagen *,Freifläche,201.036045,0,201.036045
01/01/2024,Ungeförderte Anlagen *,Freifläche,118.587825,0,118.587825
01/02/2024,Ungeförderte Anlagen *,Freifläche,377.087028,0,377.087028
01/03/2024,Ungeförderte Anlagen *,Freifläche,186.77296,0,186.77296
01/04/2024,Ungeförderte Anlagen *,Freifläche,80.161025,0,80.161025
01/05/2024,Ungeförderte Anlagen *,Freifläche,72.71872,0,72.71872
01/06/2024,Ungeförderte Anlagen *,Freifläche,123.814545,0,123.814545
01/07/2024,Ungeförderte Anlagen *,Freifläche,109.6368,14.16798,95.46882
01/08/2024,Ungeförderte Anlagen *,Freifläche,76.38629,13.4512,62.93509
