years,date,actual,plan,linear_plan,,,
2015,2015,60.2,,,,,
2016,2016,60.4,,,,,
2017,2017,60.5,,,,,
2018,2018,60.9,,,,,
2019,2019,61.1,,,,,
2020,2020,61.2,,,,,
2021,2021,61.7,,61.7,,,
2022,2022,61.9,,63.2,,,
2023,2023,62.5,,64.7,,,
2024,2024,,,66.1,,,
2025,2025,,,67.6,,,
2026,2026,,,69.1,,,
2027,2027,,,70.6,,,
2028,2028,,,72,,,
2029,2029,,,73.5,,,
2030,2030,,75,75,,,
