﻿years,date,biomass,nonbiomass,total,plan,plan_linear
1990,1990,1.99954218,0.12707652,2.12661871,,
1991,1991,2.05288172,0.13407859,2.18696031,,
1992,1992,2.18369527,0.14838021,2.33207547,,
1993,1993,2.16317608,0.15231648,2.31549256,,
1994,1994,2.20566458,0.16303645,2.36870103,,
1995,1995,2.15903496,0.16838996,2.32742491,,
1996,1996,2.03654749,0.16892472,2.20547221,,
1997,1997,3.27503420,0.18679891,3.46183311,,
1998,1998,3.73997185,0.20436312,3.94433498,,
1999,1999,4.04030525,0.23642291,4.27672816,,
2000,2000,4.15629490,0.25678639,4.41308129,,
2001,2001,4.40481635,0.26611405,4.67093040,,
2002,2002,4.52951740,0.29779274,4.82731014,,
2003,2003,6.13193525,0.36019132,6.49212656,,
2004,2004,6.93233704,0.37593872,7.30827576,,
2005,2005,7.46221468,0.43738433,7.89959901,,
2006,2006,8.10011182,0.49459560,8.59470742,,
2007,2007,9.90257856,0.63900174,10.54158030,,
2008,2008,9.73021392,0.68606849,10.41628241,,
2009,2009,10.36528476,0.88848595,11.25377071,,
2010,2010,11.39252822,0.89200832,12.28453654,,
2011,2011,11.63145995,1.10626615,12.73772610,,
2012,2012,12.51910041,1.19523088,13.71433129,,
2013,2013,12.54035736,1.23967961,13.78003697,,
2014,2014,12.43496492,1.51642992,13.95139483,,
2015,2015,12.29227333,1.57519854,13.86747187,,
2016,2016,12.03260428,1.63899504,13.67159932,,
2017,2017,12.23558857,1.72856451,13.96415308,,
2018,2018,12.94342315,1.99504743,14.93847058,,
2019,2019,13.06827043,2.04819577,15.11646620,,
2020,2020,13.01149620,2.23922232,15.25071851,,
2021,2021,13.60445151,2.22845787,15.83290938,,15.8
2022,2022,14.62123311,2.74532387,17.36655698,,19.6
2023,2023,,,,,23.4
2024,2024,,,,,27.2
2025,2025,,,,,31
2026,2026,,,,,34.8
2027,2027,,,,,38.6
2028,2028,,,,,42.4
2029,2029,,,,,46.2
2030,2030,,,,50,50
