months,date,plan,plan_linear,add_plan_linear,ariadne_lead_points,ariadne_lead_linear,ariadne_min,ariadne_max,actual,add_gw,add_mw
Jan-17,15.01.2017,,,,,,,,44.468,0.284,283.618
Feb-17,15.02.2017,,,,,,,,44.907,0.439,439.169
Mrz 17,15.03.2017,,,,,,,,45.29,0.383,382.903
Apr-17,15.04.2017,,,,,,,,45.642,0.352,352.067
Mai 17,15.05.2017,,,,,,,,46.23,0.588,587.976
Jun-17,15.06.2017,,,,,,,,46.675,0.445,444.896
Jul-17,15.07.2017,,,,,,,,47.129,0.454,453.882
Aug-17,15.08.2017,,,,,,,,47.457,0.327,327.39
Sep-17,15.09.2017,,,,,,,,48.357,0.9,899.948
Okt 17,15.10.2017,,,,,,,,48.47,0.113,113.37
Nov-17,15.11.2017,,,,,,,,48.816,0.346,345.859
Dez 17,15.12.2017,,,,,,,,49.702,0.886,885.892
Jan-18,15.01.2018,,,,,,,,49.82,0.119,118.548
Feb-18,15.02.2018,,,,,,,,50.037,0.217,216.964
Mrz 18,15.03.2018,,,,,,,,50.75,0.712,712.387
Apr-18,15.04.2018,,,,,,,,50.811,0.061,61.19
Mai 18,15.05.2018,,,,,,,,50.911,0.1,99.826
Jun-18,15.06.2018,,,,,,,,51.425,0.514,514.216
Jul-18,15.07.2018,,,,,,,,51.447,0.022,22.0
Aug-18,15.08.2018,,,,,,,,51.503,0.056,56.306
Sep-18,15.09.2018,,,,,,,,51.784,0.281,281.1
Okt 18,15.10.2018,,,,,,,,51.833,0.049,48.877
Nov-18,15.11.2018,,,,,,,,51.938,0.105,104.614
Dez 18,15.12.2018,,,,,,,,52.172,0.234,234.015
Jan-19,15.01.2019,,,,,,,,52.221,0.049,49.411
Feb-19,15.02.2019,,,,,,,,52.256,0.035,34.664
Mrz 19,15.03.2019,,,,,,,,52.299,0.044,43.623
Apr-19,15.04.2019,,,,,,,,52.321,0.022,21.948
Mai 19,15.05.2019,,,,,,,,52.343,0.021,21.418
Jun-19,15.06.2019,,,,,,,,52.393,0.051,50.57
Jul-19,15.07.2019,,,,,,,,52.453,0.06,59.949
Aug-19,15.08.2019,,,,,,,,52.48,0.027,27.124
Sep-19,15.09.2019,,,,,,,,52.599,0.119,118.746
Okt 19,15.10.2019,,,,,,,,52.676,0.077,76.684
Nov-19,15.11.2019,,,,,,,,52.779,0.103,102.981
Dez 19,15.12.2019,,,,,,,,53.032,0.254,253.713
Jan-20,15.01.2020,,,,,,,,53.132,0.1,99.605
Feb-20,15.02.2020,,,,,,,,53.261,0.128,128.44
Mrz 20,15.03.2020,,,,,,,,53.343,0.083,82.755
Apr-20,15.04.2020,,,,,,,,53.413,0.07,70.138
Mai 20,15.05.2020,,,,,,,,53.489,0.076,75.505
Jun-20,15.06.2020,,,,,,,,53.555,0.066,66.286
Jul-20,15.07.2020,,,,,,,,53.616,0.061,60.757
Aug-20,15.08.2020,,,,,,,,53.698,0.082,81.582
Sep-20,15.09.2020,,,,,,,,53.765,0.067,67.158
Okt 20,15.10.2020,,,,,,,,53.891,0.127,126.769
Nov-20,15.11.2020,,,,,,,,54.066,0.174,174.262
Dez 20,15.12.2020,,,,51.715,51.715,51.715,51.715,54.24,0.175,174.691
Jan-21,15.01.2021,,,,,52.13,51.978,52.318,54.315,0.074,74.479
Feb-21,15.02.2021,,,,,52.544,52.24,52.92,54.482,0.167,166.852
Mrz 21,15.03.2021,,,,,52.959,52.503,53.523,54.688,0.206,205.985
Apr-21,15.04.2021,,,,,53.374,52.765,54.125,54.819,0.131,131.475
Mai 21,15.05.2021,,,,,53.788,53.028,54.728,54.879,0.06,59.974
Jun-21,15.06.2021,,,,,54.203,53.29,55.33,55.066,0.187,186.699
Jul-21,15.07.2021,,,,,54.617,53.553,55.933,55.183,0.117,116.736
Aug-21,15.08.2021,,,,,55.032,53.815,56.536,55.272,0.09,89.706
Sep-21,15.09.2021,,,,,55.447,54.078,57.138,55.39,0.118,117.648
Okt 21,15.10.2021,,,,,55.861,54.34,57.741,55.538,0.148,148.381
Nov-21,15.11.2021,,,,,56.276,54.603,58.343,55.63,0.092,91.798
Dez 21,15.12.2021,,,,,56.69,54.866,58.946,55.872,0.242,241.76
Jan-22,15.01.2022,,56.091,0.205,,57.105,55.128,59.548,55.955,0.083,83.115
Feb-22,15.02.2022,,56.296,0.205,,57.52,55.391,60.151,56.096,0.141,141.23
Mrz 22,15.03.2022,,56.501,0.205,,57.934,55.653,60.753,56.209,0.113,113.072
Apr-22,15.04.2022,,56.706,0.205,,58.349,55.916,61.356,56.306,0.096,96.198
Mai 22,15.05.2022,,56.911,0.205,,58.763,56.178,61.958,56.503,0.197,197.194
Jun-22,15.06.2022,,57.115,0.205,,59.178,56.441,62.561,56.728,0.225,224.774
Jul-22,15.07.2022,,57.32,0.205,,59.593,56.703,63.164,56.905,0.177,177.38
Aug-22,15.08.2022,,57.525,0.205,,60.007,56.966,63.766,57.048,0.143,142.673
Sep-22,15.09.2022,,57.73,0.205,,60.422,57.228,64.369,57.289,0.241,241.044
Okt 22,15.10.2022,,57.935,0.205,,60.836,57.491,64.971,57.438,0.149,149.017
Nov-22,15.11.2022,,58.14,0.205,,61.251,57.753,65.574,57.687,0.249,249.071
Dez 22,15.12.2022,,58.345,0.205,,61.666,58.016,66.176,57.977,0.29,290.354
Jan-23,15.01.2023,,58.686,0.342,,62.08,58.278,66.779,58.029,0.052,51.835
Feb-23,15.02.2023,,59.028,0.342,,62.495,58.541,67.381,58.172,0.143,142.86
Mrz 23,15.03.2023,,59.369,0.342,,62.909,58.803,67.984,58.439,0.268,267.726
Apr-23,15.04.2023,,59.711,0.342,,63.324,59.066,68.586,58.688,0.249,248.566
Mai 23,15.05.2023,,60.052,0.342,,63.739,59.329,69.189,58.955,0.267,267.114
Jun-23,15.06.2023,,60.394,0.342,,64.153,59.591,69.792,59.271,0.316,316.316
Jul-23,15.07.2023,,60.735,0.342,,64.568,59.854,70.394,59.469,0.198,197.965
Aug-23,15.08.2023,,61.077,0.342,,64.982,60.116,70.997,59.627,0.158,157.952
Sep-23,15.09.2023,,61.418,0.342,,65.397,60.379,71.599,59.989,0.361,361.288
Okt 23,15.10.2023,,61.76,0.342,,65.812,60.641,72.202,60.404,0.415,414.893
Nov-23,15.11.2023,,62.101,0.342,,66.226,60.904,72.804,60.611,0.207,207.192
Dez 23,15.12.2023,,62.443,0.342,,66.641,61.166,73.407,60.98,0.369,369.126
Jan-24,15.01.2024,,62.989,0.546,,67.055,61.429,74.009,61.11,0.13,130.164
Feb-24,15.02.2024,,63.536,0.546,,67.47,61.691,74.612,61.327,0.217,216.691
Mrz 24,15.03.2024,,64.082,0.546,,67.885,61.954,75.214,61.53,0.203,203.281
Apr-24,15.04.2024,,64.629,0.546,,68.299,62.216,75.817,61.672,0.142,142.22
Mai 24,15.05.2024,,65.175,0.546,,68.714,62.479,76.42,61.717,0.045,44.749
Jun-24,15.06.2024,,65.722,0.546,,69.128,62.741,77.022,61.892,0.175,175.422
Jul-24,15.07.2024,,66.268,0.546,,69.543,63.004,77.625,62.103,0.211,210.991
Aug-24,15.08.2024,,66.814,0.546,,69.958,63.267,78.227,62.285,0.182,181.626
Sep-24,15.09.2024,,67.361,0.546,,70.372,63.529,78.83,62.503,0.218,218.151
Okt 24,15.10.2024,,67.907,0.546,,70.787,63.792,79.432,62.702,0.199,199.292
Nov-24,15.11.2024,,68.454,0.546,,71.201,64.054,80.035,63.167,0.465,464.825
Dez 24,15.12.2024,69.0,69.0,0.546,,71.616,64.317,80.637,63.538,0.37,370.264
Jan-25,15.01.2025,,69.625,0.625,,72.031,64.579,81.24,63.53,-0.008,-7.5
Feb-25,15.02.2025,,70.25,0.625,,72.445,64.842,81.842,,,
Mrz 25,15.03.2025,,70.875,0.625,,72.86,65.104,82.445,,,
Apr-25,15.04.2025,,71.5,0.625,,73.274,65.367,83.047,,,
Mai 25,15.05.2025,,72.125,0.625,,73.689,65.629,83.65,,,
Jun-25,15.06.2025,,72.75,0.625,,74.104,65.892,84.253,,,
Jul-25,15.07.2025,,73.375,0.625,,74.518,66.154,84.855,,,
Aug-25,15.08.2025,,74.0,0.625,,74.933,66.417,85.458,,,
Sep-25,15.09.2025,,74.625,0.625,,75.347,66.679,86.06,,,
Okt 25,15.10.2025,,75.25,0.625,,75.762,66.942,86.663,,,
Nov-25,15.11.2025,,75.875,0.625,,76.177,67.204,87.265,,,
Dez 25,15.12.2025,,76.5,0.625,76.591,76.591,67.467,87.868,,,
Jan-26,15.01.2026,,77.125,0.625,,77.498,67.493,88.608,,,
Feb-26,15.02.2026,,77.75,0.625,,78.405,67.52,89.349,,,
Mrz 26,15.03.2026,,78.375,0.625,,79.312,67.546,90.089,,,
Apr-26,15.04.2026,,79.0,0.625,,80.218,67.573,90.83,,,
Mai 26,15.05.2026,,79.625,0.625,,81.125,67.599,91.571,,,
Jun-26,15.06.2026,,80.25,0.625,,82.032,67.626,92.311,,,
Jul-26,15.07.2026,,80.875,0.625,,82.939,67.652,93.052,,,
Aug-26,15.08.2026,,81.5,0.625,,83.846,67.678,93.792,,,
Sep-26,15.09.2026,,82.125,0.625,,84.753,67.705,94.533,,,
Okt 26,15.10.2026,,82.75,0.625,,85.659,67.731,95.273,,,
Nov-26,15.11.2026,,83.375,0.625,,86.566,67.758,96.014,,,
Dez 26,15.12.2026,84.0,84.0,0.625,,87.473,67.784,96.754,,,
Jan-27,15.01.2027,,84.625,0.625,,88.38,67.811,97.495,,,
Feb-27,15.02.2027,,85.25,0.625,,89.287,67.837,98.235,,,
Mrz 27,15.03.2027,,85.875,0.625,,90.193,67.863,98.976,,,
Apr-27,15.04.2027,,86.5,0.625,,91.1,67.89,99.716,,,
Mai 27,15.05.2027,,87.125,0.625,,92.007,67.916,100.457,,,
Jun-27,15.06.2027,,87.75,0.625,,92.914,67.943,101.198,,,
Jul-27,15.07.2027,,88.375,0.625,,93.821,67.969,101.938,,,
Aug-27,15.08.2027,,89.0,0.625,,94.728,67.996,102.679,,,
Sep-27,15.09.2027,,89.625,0.625,,95.634,68.022,103.419,,,
Okt 27,15.10.2027,,90.25,0.625,,96.541,68.049,104.16,,,
Nov-27,15.11.2027,,90.875,0.625,,97.448,68.075,104.9,,,
Dez 27,15.12.2027,,91.5,0.625,,98.355,68.101,105.641,,,
Jan-28,15.01.2028,,92.125,0.625,,99.262,68.128,106.381,,,
Feb-28,15.02.2028,,92.75,0.625,,100.169,68.154,107.122,,,
Mrz 28,15.03.2028,,93.375,0.625,,101.075,68.181,107.862,,,
Apr-28,15.04.2028,,94.0,0.625,,101.982,68.207,108.603,,,
Mai 28,15.05.2028,,94.625,0.625,,102.889,68.234,109.343,,,
Jun-28,15.06.2028,,95.25,0.625,,103.796,68.26,110.084,,,
Jul-28,15.07.2028,,95.875,0.625,,104.703,68.286,110.824,,,
Aug-28,15.08.2028,,96.5,0.625,,105.609,68.313,111.565,,,
Sep-28,15.09.2028,,97.125,0.625,,106.516,68.339,112.306,,,
Okt 28,15.10.2028,,97.75,0.625,,107.423,68.366,113.046,,,
Nov-28,15.11.2028,,98.375,0.625,,108.33,68.392,113.787,,,
Dez 28,15.12.2028,99.0,99.0,0.625,,109.237,68.419,114.527,,,
Jan-29,15.01.2029,,99.667,0.667,,110.144,68.445,115.268,,,
Feb-29,15.02.2029,,100.333,0.667,,111.05,68.471,116.008,,,
Mrz 29,15.03.2029,,101.0,0.667,,111.957,68.498,116.749,,,
Apr-29,15.04.2029,,101.667,0.667,,112.864,68.524,117.489,,,
Mai 29,15.05.2029,,102.333,0.667,,113.771,68.551,118.23,,,
Jun-29,15.06.2029,,103.0,0.667,,114.678,68.577,118.97,,,
Jul-29,15.07.2029,,103.667,0.667,,115.585,68.604,119.711,,,
Aug-29,15.08.2029,,104.333,0.667,,116.491,68.63,120.451,,,
Sep-29,15.09.2029,,105.0,0.667,,117.398,68.656,121.192,,,
Okt 29,15.10.2029,,105.667,0.667,,118.305,68.683,121.933,,,
Nov-29,15.11.2029,,106.333,0.667,,119.212,68.709,122.673,,,
Dez 29,15.12.2029,,107.0,0.667,,120.119,68.736,123.414,,,
Jan-30,15.01.2030,,107.667,0.667,,121.025,68.762,124.154,,,
Feb-30,15.02.2030,,108.333,0.667,,121.932,68.789,124.895,,,
Mrz 30,15.03.2030,,109.0,0.667,,122.839,68.815,125.635,,,
Apr-30,15.04.2030,,109.667,0.667,,123.746,68.842,126.376,,,
Mai 30,15.05.2030,,110.333,0.667,,124.653,68.868,127.116,,,
Jun-30,15.06.2030,,111.0,0.667,,125.56,68.894,127.857,,,
Jul-30,15.07.2030,,111.667,0.667,,126.466,68.921,128.597,,,
Aug-30,15.08.2030,,112.333,0.667,,127.373,68.947,129.338,,,
Sep-30,15.09.2030,,113.0,0.667,,128.28,68.974,130.078,,,
Okt 30,15.10.2030,,113.667,0.667,,129.187,69.0,130.819,,,
Nov-30,15.11.2030,,114.333,0.667,,130.094,69.027,131.559,,,
Dez 30,15.12.2030,115.0,115.0,0.667,131.0,131.0,69.053,132.3,,,
Jan-31,15.01.2031,,115.7,0.7,,131.889,69.076,133.254,,,
Feb-31,15.02.2031,,116.4,0.7,,132.778,69.099,134.208,,,
Mrz 31,15.03.2031,,117.1,0.7,,133.666,69.121,135.163,,,
Apr-31,15.04.2031,,117.8,0.7,,134.555,69.144,136.117,,,
Mai 31,15.05.2031,,118.5,0.7,,135.443,69.167,137.071,,,
Jun-31,15.06.2031,,119.2,0.7,,136.332,69.19,138.025,,,
Jul-31,15.07.2031,,119.9,0.7,,137.22,69.213,138.979,,,
Aug-31,15.08.2031,,120.6,0.7,,138.109,69.236,139.934,,,
Sep-31,15.09.2031,,121.3,0.7,,138.997,69.258,140.888,,,
Okt 31,15.10.2031,,122.0,0.7,,139.886,69.281,141.842,,,
Nov-31,15.11.2031,,122.7,0.7,,140.774,69.304,142.796,,,
Dez 31,15.12.2031,,123.4,0.7,,141.663,69.327,143.75,,,
Jan-32,15.01.2032,,124.1,0.7,,142.551,69.35,144.705,,,
Feb-32,15.02.2032,,124.8,0.7,,143.44,69.372,145.659,,,
Mrz 32,15.03.2032,,125.5,0.7,,144.328,69.395,146.613,,,
Apr-32,15.04.2032,,126.2,0.7,,145.217,69.418,147.567,,,
Mai 32,15.05.2032,,126.9,0.7,,146.106,69.441,148.521,,,
Jun-32,15.06.2032,,127.6,0.7,,146.994,69.464,149.475,,,
Jul-32,15.07.2032,,128.3,0.7,,147.883,69.487,150.43,,,
Aug-32,15.08.2032,,129.0,0.7,,148.771,69.509,151.384,,,
Sep-32,15.09.2032,,129.7,0.7,,149.66,69.532,152.338,,,
Okt 32,15.10.2032,,130.4,0.7,,150.548,69.555,153.292,,,
Nov-32,15.11.2032,,131.1,0.7,,151.437,69.578,154.246,,,
Dez 32,15.12.2032,,131.8,0.7,,152.325,69.601,155.201,,,
Jan-33,15.01.2033,,132.5,0.7,,153.214,69.623,156.155,,,
Feb-33,15.02.2033,,133.2,0.7,,154.102,69.646,157.109,,,
Mrz 33,15.03.2033,,133.9,0.7,,154.991,69.669,158.063,,,
Apr-33,15.04.2033,,134.6,0.7,,155.879,69.692,159.017,,,
Mai 33,15.05.2033,,135.3,0.7,,156.768,69.715,159.972,,,
Jun-33,15.06.2033,,136.0,0.7,,157.656,69.738,160.926,,,
Jul-33,15.07.2033,,136.7,0.7,,158.545,69.76,161.88,,,
Aug-33,15.08.2033,,137.4,0.7,,159.434,69.783,162.834,,,
Sep-33,15.09.2033,,138.1,0.7,,160.322,69.806,163.788,,,
Okt 33,15.10.2033,,138.8,0.7,,161.211,69.829,164.743,,,
Nov-33,15.11.2033,,139.5,0.7,,162.099,69.852,165.697,,,
Dez 33,15.12.2033,,140.2,0.7,,162.988,69.874,166.651,,,
Jan-34,15.01.2034,,140.9,0.7,,163.876,69.897,167.605,,,
Feb-34,15.02.2034,,141.6,0.7,,164.765,69.92,168.559,,,
Mrz 34,15.03.2034,,142.3,0.7,,165.653,69.943,169.514,,,
Apr-34,15.04.2034,,143.0,0.7,,166.542,69.966,170.468,,,
Mai 34,15.05.2034,,143.7,0.7,,167.43,69.988,171.422,,,
Jun-34,15.06.2034,,144.4,0.7,,168.319,70.011,172.376,,,
Jul-34,15.07.2034,,145.1,0.7,,169.207,70.034,173.33,,,
Aug-34,15.08.2034,,145.8,0.7,,170.096,70.057,174.285,,,
Sep-34,15.09.2034,,146.5,0.7,,170.984,70.08,175.239,,,
Okt 34,15.10.2034,,147.2,0.7,,171.873,70.103,176.193,,,
Nov-34,15.11.2034,,147.9,0.7,,172.762,70.125,177.147,,,
Dez 34,15.12.2034,,148.6,0.7,,173.65,70.148,178.101,,,
Jan-35,15.01.2035,,149.3,0.7,,174.539,70.171,179.055,,,
Feb-35,15.02.2035,,150.0,0.7,,175.427,70.194,180.01,,,
Mrz 35,15.03.2035,,150.7,0.7,,176.316,70.217,180.964,,,
Apr-35,15.04.2035,,151.4,0.7,,177.204,70.239,181.918,,,
Mai 35,15.05.2035,,152.1,0.7,,178.093,70.262,182.872,,,
Jun-35,15.06.2035,,152.8,0.7,,178.981,70.285,183.826,,,
Jul-35,15.07.2035,,153.5,0.7,,179.87,70.308,184.781,,,
Aug-35,15.08.2035,,154.2,0.7,,180.758,70.331,185.735,,,
Sep-35,15.09.2035,,154.9,0.7,,181.647,70.354,186.689,,,
Okt 35,15.10.2035,,155.6,0.7,,182.535,70.376,187.643,,,
Nov-35,15.11.2035,,156.3,0.7,,183.424,70.399,188.597,,,
Dez 35,15.12.2035,157.0,157.0,0.7,184.312,184.312,70.422,189.552,,,
Jan-36,15.01.2036,,157.05,0.05,,184.79,70.433,190.146,,,
Feb-36,15.02.2036,,157.1,0.05,,185.268,70.444,190.74,,,
Mrz 36,15.03.2036,,157.15,0.05,,185.746,70.455,191.335,,,
Apr-36,15.04.2036,,157.2,0.05,,186.224,70.466,191.929,,,
Mai 36,15.05.2036,,157.25,0.05,,186.702,70.477,192.523,,,
Jun-36,15.06.2036,,157.3,0.05,,187.18,70.487,193.118,,,
Jul-36,15.07.2036,,157.35,0.05,,187.658,70.498,193.712,,,
Aug-36,15.08.2036,,157.4,0.05,,188.135,70.509,194.307,,,
Sep-36,15.09.2036,,157.45,0.05,,188.613,70.52,194.901,,,
Okt 36,15.10.2036,,157.5,0.05,,189.091,70.531,195.495,,,
Nov-36,15.11.2036,,157.55,0.05,,189.569,70.542,196.09,,,
Dez 36,15.12.2036,,157.6,0.05,,190.047,70.553,196.684,,,
Jan-37,15.01.2037,,157.65,0.05,,190.525,70.564,197.279,,,
Feb-37,15.02.2037,,157.7,0.05,,191.003,70.575,197.873,,,
Mrz 37,15.03.2037,,157.75,0.05,,191.481,70.586,198.467,,,
Apr-37,15.04.2037,,157.8,0.05,,191.958,70.596,199.062,,,
Mai 37,15.05.2037,,157.85,0.05,,192.436,70.607,199.656,,,
Jun-37,15.06.2037,,157.9,0.05,,192.914,70.618,200.25,,,
Jul-37,15.07.2037,,157.95,0.05,,193.392,70.629,200.845,,,
Aug-37,15.08.2037,,158.0,0.05,,193.87,70.64,201.439,,,
Sep-37,15.09.2037,,158.05,0.05,,194.348,70.651,202.034,,,
Okt 37,15.10.2037,,158.1,0.05,,194.826,70.662,202.628,,,
Nov-37,15.11.2037,,158.15,0.05,,195.304,70.673,203.222,,,
Dez 37,15.12.2037,,158.2,0.05,,195.782,70.684,203.817,,,
Jan-38,15.01.2038,,158.25,0.05,,196.259,70.695,204.411,,,
Feb-38,15.02.2038,,158.3,0.05,,196.737,70.705,205.005,,,
Mrz 38,15.03.2038,,158.35,0.05,,197.215,70.716,205.6,,,
Apr-38,15.04.2038,,158.4,0.05,,197.693,70.727,206.194,,,
Mai 38,15.05.2038,,158.45,0.05,,198.171,70.738,206.789,,,
Jun-38,15.06.2038,,158.5,0.05,,198.649,70.749,207.383,,,
Jul-38,15.07.2038,,158.55,0.05,,199.127,70.76,207.977,,,
Aug-38,15.08.2038,,158.6,0.05,,199.605,70.771,208.572,,,
Sep-38,15.09.2038,,158.65,0.05,,200.082,70.782,209.166,,,
Okt 38,15.10.2038,,158.7,0.05,,200.56,70.793,209.76,,,
Nov-38,15.11.2038,,158.75,0.05,,201.038,70.804,210.355,,,
Dez 38,15.12.2038,,158.8,0.05,,201.516,70.814,210.949,,,
Jan-39,15.01.2039,,158.85,0.05,,201.994,70.825,211.544,,,
Feb-39,15.02.2039,,158.9,0.05,,202.472,70.836,212.138,,,
Mrz 39,15.03.2039,,158.95,0.05,,202.95,70.847,212.732,,,
Apr-39,15.04.2039,,159.0,0.05,,203.428,70.858,213.327,,,
Mai 39,15.05.2039,,159.05,0.05,,203.905,70.869,213.921,,,
Jun-39,15.06.2039,,159.1,0.05,,204.383,70.88,214.515,,,
Jul-39,15.07.2039,,159.15,0.05,,204.861,70.891,215.11,,,
Aug-39,15.08.2039,,159.2,0.05,,205.339,70.902,215.704,,,
Sep-39,15.09.2039,,159.25,0.05,,205.817,70.913,216.299,,,
Okt 39,15.10.2039,,159.3,0.05,,206.295,70.923,216.893,,,
Nov-39,15.11.2039,,159.35,0.05,,206.773,70.934,217.487,,,
Dez 39,15.12.2039,,159.4,0.05,,207.251,70.945,218.082,,,
Jan-40,15.01.2040,,159.45,0.05,,207.728,70.956,218.676,,,
Feb-40,15.02.2040,,159.5,0.05,,208.206,70.967,219.271,,,
Mrz 40,15.03.2040,,159.55,0.05,,208.684,70.978,219.865,,,
Apr-40,15.04.2040,,159.6,0.05,,209.162,70.989,220.459,,,
Mai 40,15.05.2040,,159.65,0.05,,209.64,71.0,221.054,,,
Jun-40,15.06.2040,,159.7,0.05,,210.118,71.011,221.648,,,
Jul-40,15.07.2040,,159.75,0.05,,210.596,71.022,222.242,,,
Aug-40,15.08.2040,,159.8,0.05,,211.074,71.032,222.837,,,
Sep-40,15.09.2040,,159.85,0.05,,211.551,71.043,223.431,,,
Okt 40,15.10.2040,,159.9,0.05,,212.029,71.054,224.026,,,
Nov-40,15.11.2040,,159.95,0.05,,212.507,71.065,224.62,,,
Dez 40,15.12.2040,160.0,160.0,0.05,212.985,212.985,71.076,225.214,,,
Jan-41,15.01.2041,,160.0,0.0,,213.061,71.107,225.381,,,
Feb-41,15.02.2041,,160.0,0.0,,213.136,71.138,225.547,,,
Mrz 41,15.03.2041,,160.0,0.0,,213.212,71.17,225.714,,,
Apr-41,15.04.2041,,160.0,0.0,,213.287,71.201,225.88,,,
Mai 41,15.05.2041,,160.0,0.0,,213.363,71.232,226.046,,,
Jun-41,15.06.2041,,160.0,0.0,,213.438,71.263,226.213,,,
Jul-41,15.07.2041,,160.0,0.0,,213.514,71.294,226.379,,,
Aug-41,15.08.2041,,160.0,0.0,,213.589,71.326,226.546,,,
Sep-41,15.09.2041,,160.0,0.0,,213.665,71.357,226.712,,,
Okt 41,15.10.2041,,160.0,0.0,,213.74,71.388,226.878,,,
Nov-41,15.11.2041,,160.0,0.0,,213.816,71.419,227.045,,,
Dez 41,15.12.2041,,160.0,0.0,,213.891,71.45,227.211,,,
Jan-42,15.01.2042,,160.0,0.0,,213.967,71.482,227.378,,,
Feb-42,15.02.2042,,160.0,0.0,,214.042,71.513,227.544,,,
Mrz 42,15.03.2042,,160.0,0.0,,214.118,71.544,227.71,,,
Apr-42,15.04.2042,,160.0,0.0,,214.193,71.575,227.877,,,
Mai 42,15.05.2042,,160.0,0.0,,214.269,71.606,228.043,,,
Jun-42,15.06.2042,,160.0,0.0,,214.344,71.638,228.21,,,
Jul-42,15.07.2042,,160.0,0.0,,214.42,71.669,228.376,,,
Aug-42,15.08.2042,,160.0,0.0,,214.495,71.7,228.543,,,
Sep-42,15.09.2042,,160.0,0.0,,214.571,71.731,228.709,,,
Okt 42,15.10.2042,,160.0,0.0,,214.646,71.762,228.875,,,
Nov-42,15.11.2042,,160.0,0.0,,214.722,71.794,229.042,,,
Dez 42,15.12.2042,,160.0,0.0,,214.797,71.825,229.208,,,
Jan-43,15.01.2043,,160.0,0.0,,214.873,71.856,229.375,,,
Feb-43,15.02.2043,,160.0,0.0,,214.948,71.887,229.541,,,
Mrz 43,15.03.2043,,160.0,0.0,,215.024,71.918,229.707,,,
Apr-43,15.04.2043,,160.0,0.0,,215.099,71.95,229.874,,,
Mai 43,15.05.2043,,160.0,0.0,,215.175,71.981,230.04,,,
Jun-43,15.06.2043,,160.0,0.0,,215.25,72.012,230.207,,,
Jul-43,15.07.2043,,160.0,0.0,,215.326,72.043,230.373,,,
Aug-43,15.08.2043,,160.0,0.0,,215.401,72.074,230.539,,,
Sep-43,15.09.2043,,160.0,0.0,,215.477,72.106,230.706,,,
Okt 43,15.10.2043,,160.0,0.0,,215.552,72.137,230.872,,,
Nov-43,15.11.2043,,160.0,0.0,,215.628,72.168,231.039,,,
Dez 43,15.12.2043,,160.0,0.0,,215.703,72.199,231.205,,,
Jan-44,15.01.2044,,160.0,0.0,,215.779,72.23,231.371,,,
Feb-44,15.02.2044,,160.0,0.0,,215.854,72.262,231.538,,,
Mrz 44,15.03.2044,,160.0,0.0,,215.93,72.293,231.704,,,
Apr-44,15.04.2044,,160.0,0.0,,216.005,72.324,231.871,,,
Mai 44,15.05.2044,,160.0,0.0,,216.081,72.355,232.037,,,
Jun-44,15.06.2044,,160.0,0.0,,216.156,72.386,232.204,,,
Jul-44,15.07.2044,,160.0,0.0,,216.232,72.418,232.37,,,
Aug-44,15.08.2044,,160.0,0.0,,216.307,72.449,232.536,,,
Sep-44,15.09.2044,,160.0,0.0,,216.383,72.48,232.703,,,
Okt 44,15.10.2044,,160.0,0.0,,216.458,72.511,232.869,,,
Nov-44,15.11.2044,,160.0,0.0,,216.534,72.542,233.036,,,
Dez 44,15.12.2044,,160.0,0.0,,216.609,72.574,233.202,,,
Jan-45,15.01.2045,,160.0,0.0,,216.685,72.605,233.368,,,
Feb-45,15.02.2045,,160.0,0.0,,216.76,72.636,233.535,,,
Mrz 45,15.03.2045,,160.0,0.0,,216.836,72.667,233.701,,,
Apr-45,15.04.2045,,160.0,0.0,,216.911,72.698,233.868,,,
Mai 45,15.05.2045,,160.0,0.0,,216.987,72.73,234.034,,,
Jun-45,15.06.2045,,160.0,0.0,,217.062,72.761,234.2,,,
Jul-45,15.07.2045,,160.0,0.0,,217.138,72.792,234.367,,,
Aug-45,15.08.2045,,160.0,0.0,,217.213,72.823,234.533,,,
Sep-45,15.09.2045,,160.0,0.0,,217.289,72.854,234.7,,,
Okt 45,15.10.2045,,160.0,0.0,,217.364,72.886,234.866,,,
Nov-45,15.11.2045,,160.0,0.0,,217.44,72.917,235.033,,,
Dez 45,15.12.2045,160.0,160.0,0.0,217.515,217.515,72.948,235.199,,,
