﻿Monat,Subventionstyp,Lage,Zubau,Rückbau,Netto,,,,
01/07/2023,EEG-Ausschreibung,Baul. Anlage,44.96309,0,44.96309,,,,
01/08/2023,EEG-Ausschreibung,Baul. Anlage,32.05261,0,32.05261,,,,
01/09/2023,EEG-Ausschreibung,Baul. Anlage,29.25312,0,29.25312,,,,
01/10/2023,EEG-Ausschreibung,Baul. Anlage,22.112156,0,22.112156,,,,
01/11/2023,EEG-Ausschreibung,Baul. Anlage,24.06566,0,24.06566,,,,
01/12/2023,EEG-Ausschreibung,Baul. Anlage,41.1861,0,41.1861,,,,
01/01/2024,EEG-Ausschreibung,Baul. Anlage,29.18432,0,29.18432,,,,
01/02/2024,EEG-Ausschreibung,Baul. Anlage,30.320815,0,30.320815,,,,
01/03/2024,EEG-Ausschreibung,Baul. Anlage,24.193915,0,24.193915,,,,
01/04/2024,EEG-Ausschreibung,Baul. Anlage,27.92906,0,27.92906,,,,
01/05/2024,EEG-Ausschreibung,Baul. Anlage,24.241495,0,24.241495,,,,
01/06/2024,EEG-Ausschreibung,Baul. Anlage,11.33065,0,11.33065,,,,
01/07/2023,EEG-Ausschreibung,Freifläche,206.98235,0,206.98235,,,,
01/08/2023,EEG-Ausschreibung,Freifläche,233.426165,0,233.426165,,,,
01/09/2023,EEG-Ausschreibung,Freifläche,107.86627,0,107.86627,,,,
01/10/2023,EEG-Ausschreibung,Freifläche,535.28962,0,535.28962,,,,
01/11/2023,EEG-Ausschreibung,Freifläche,418.9779,0,418.9779,,,,
01/12/2023,EEG-Ausschreibung,Freifläche,210.386445,0,210.386445,,,,
01/01/2024,EEG-Ausschreibung,Freifläche,208.9453,7.98336,200.96194,,,,
01/02/2024,EEG-Ausschreibung,Freifläche,170.631979,0,170.631979,,,,
01/03/2024,EEG-Ausschreibung,Freifläche,385.05056,0,385.05056,,,,
01/04/2024,EEG-Ausschreibung,Freifläche,326.04073,0,326.04073,,,,
01/05/2024,EEG-Ausschreibung,Freifläche,218.33038,0,218.33038,,,,
01/06/2024,EEG-Ausschreibung,Freifläche,329.622187,0,329.622187,,,,
01/07/2023,Gesetzliche EEG-Förderung,Baul. Anlage,1001.058916,1.20745,999.851466,,,,
01/08/2023,Gesetzliche EEG-Förderung,Baul. Anlage,970.281495,2.632269,967.649226,,,,
01/09/2023,Gesetzliche EEG-Förderung,Baul. Anlage,922.020501,2.041731,919.97877,,,,
01/10/2023,Gesetzliche EEG-Förderung,Baul. Anlage,823.854603,1.983794,821.870809,,,,
01/11/2023,Gesetzliche EEG-Förderung,Baul. Anlage,813.658771,2.015793,811.642978,,,,
01/12/2023,Gesetzliche EEG-Förderung,Baul. Anlage,605.44256,3.053484,602.389076,,,,
01/01/2024,Gesetzliche EEG-Förderung,Baul. Anlage,1104.78064,2.306396,1102.474244,,,,
01/02/2024,Gesetzliche EEG-Förderung,Baul. Anlage,576.064237,2.0997,573.964537,,,,
01/03/2024,Gesetzliche EEG-Förderung,Baul. Anlage,696.046589,2.028112,694.018477,,,,
01/04/2024,Gesetzliche EEG-Förderung,Baul. Anlage,735.231611,2.236591,732.99502,,,,
01/05/2024,Gesetzliche EEG-Förderung,Baul. Anlage,693.881073,2.150514,691.730559,,,,
01/06/2024,Gesetzliche EEG-Förderung,Baul. Anlage,645.400564,2.010853,643.389711,,,,
01/07/2023,Gesetzliche EEG-Förderung,Freifläche,28.45424,0.011705,28.442535,,,,
01/08/2023,Gesetzliche EEG-Förderung,Freifläche,23.809725,0.00225,23.807475,,,,
01/09/2023,Gesetzliche EEG-Förderung,Freifläche,25.65599,0.01094,25.64505,,,,
01/10/2023,Gesetzliche EEG-Förderung,Freifläche,30.488632,0.0012,30.487432,,,,
01/11/2023,Gesetzliche EEG-Förderung,Freifläche,21.80186,0.01876,21.7831,,,,
01/12/2023,Gesetzliche EEG-Förderung,Freifläche,24.94397,0,24.94397,,,,
01/01/2024,Gesetzliche EEG-Förderung,Freifläche,84.241128,0.1061,84.135028,,,,
01/02/2024,Gesetzliche EEG-Förderung,Freifläche,14.130361,0.011,14.119361,,,,
01/03/2024,Gesetzliche EEG-Förderung,Freifläche,18.3501,0.00134,18.34876,,,,
01/04/2024,Gesetzliche EEG-Förderung,Freifläche,33.4566,0.0033,33.4533,,,,
01/05/2024,Gesetzliche EEG-Förderung,Freifläche,23.170132,0.007405,23.162727,,,,
01/06/2024,Gesetzliche EEG-Förderung,Freifläche,36.831323,0.00589,36.825433,,,,
01/07/2023,Gesetzliche EEG-Förderung,Mieterstrom,3.012175,0,3.012175,,,,
01/08/2023,Gesetzliche EEG-Förderung,Mieterstrom,3.72708,0,3.72708,,,,
01/09/2023,Gesetzliche EEG-Förderung,Mieterstrom,2.649023,0,2.649023,,,,
01/10/2023,Gesetzliche EEG-Förderung,Mieterstrom,2.422993,0,2.422993,,,,
01/11/2023,Gesetzliche EEG-Förderung,Mieterstrom,2.518475,0.01145,2.507025,,,,
01/12/2023,Gesetzliche EEG-Förderung,Mieterstrom,3.18635,0,3.18635,,,,
01/01/2024,Gesetzliche EEG-Förderung,Mieterstrom,8.009475,0,8.009475,,,,
01/02/2024,Gesetzliche EEG-Förderung,Mieterstrom,1.771995,0,1.771995,,,,
01/03/2024,Gesetzliche EEG-Förderung,Mieterstrom,0.76642,0,0.76642,,,,
01/04/2024,Gesetzliche EEG-Förderung,Mieterstrom,0,0,0,,,,
01/05/2024,Gesetzliche EEG-Förderung,Mieterstrom,0,0,0,,,,
01/06/2024,Gesetzliche EEG-Förderung,Mieterstrom,0,0,0,,,,
01/07/2023,Ungeförderte Anlagen *,Baul. Anlage,18.31324,0,18.31324,,,,
01/08/2023,Ungeförderte Anlagen *,Baul. Anlage,14.36243,0,14.36243,,,,
01/09/2023,Ungeförderte Anlagen *,Baul. Anlage,31.62115,0,31.62115,,,,
01/10/2023,Ungeförderte Anlagen *,Baul. Anlage,35.97136,0,35.97136,,,,
01/11/2023,Ungeförderte Anlagen *,Baul. Anlage,22.52531,0,22.52531,,,,
01/12/2023,Ungeförderte Anlagen *,Baul. Anlage,25.084685,0,25.084685,,,,
01/01/2024,Ungeförderte Anlagen *,Baul. Anlage,14.70551,0,14.70551,,,,
01/02/2024,Ungeförderte Anlagen *,Baul. Anlage,37.097815,0,37.097815,,,,
01/03/2024,Ungeförderte Anlagen *,Baul. Anlage,19.699535,0,19.699535,,,,
01/04/2024,Ungeförderte Anlagen *,Baul. Anlage,18.69287,0,18.69287,,,,
01/05/2024,Ungeförderte Anlagen *,Baul. Anlage,15.82888,0,15.82888,,,,
01/06/2024,Ungeförderte Anlagen *,Baul. Anlage,11.69597,0,11.69597,,,,
01/07/2023,Ungeförderte Anlagen *,Freifläche,192.896535,0,192.896535,,,,
01/08/2023,Ungeförderte Anlagen *,Freifläche,82.35862,0,82.35862,,,,
01/09/2023,Ungeförderte Anlagen *,Freifläche,83.780835,0,83.780835,,,,
01/10/2023,Ungeförderte Anlagen *,Freifläche,40.85864,0,40.85864,,,,
01/11/2023,Ungeförderte Anlagen *,Freifläche,99.79863,0,99.79863,,,,
01/12/2023,Ungeförderte Anlagen *,Freifläche,201.036045,0,201.036045,,,,
01/01/2024,Ungeförderte Anlagen *,Freifläche,112.590225,0,112.590225,,,,
01/02/2024,Ungeförderte Anlagen *,Freifläche,383.084628,0,383.084628,,,,
01/03/2024,Ungeförderte Anlagen *,Freifläche,186.77296,0,186.77296,,,,
01/04/2024,Ungeförderte Anlagen *,Freifläche,81.980465,0,81.980465,,,,
01/05/2024,Ungeförderte Anlagen *,Freifläche,111.568725,0,111.568725,,,,
01/06/2024,Ungeförderte Anlagen *,Freifläche,104.00707,0,104.00707,,,,
