months,date,BEVp_new,BEVld_new,PHEVp_new,BEVp_ms,BEVld_ms,PHEVp_ms,total_ms,BEV_stock,PHEV_stock,total_stock,cs_total,plan_bev,plan_phev,plan_bev_linear,plan_phev_linear
Mai 21,31.05.2021,11564,656,12893,8.2,1.8,9.1,14.2,393934,187997,581931,41214,,,,
Jun 21,30.06.2021,20899,1239,16509,10.5,2.6,8.3,15.7,416072,204567,620639,43699,,,,
Jul 21,31.07.2021,7524,769,10761,6.5,2.4,9.3,12.9,424365,215371,639736,45056,,,,
Aug 21,31.08.2021,9911,719,7484,11.3,3.3,8.5,16.6,434995,222886,657881,46310,,,,
Sep 21,30.09.2021,16990,1158,11796,12.7,3.3,7,17.8,452143,234733,687876,49086,,,,
Okt 21,31.10.2021,15582,1158,11527,13.1,3.4,9.8,17.8,469750,246325,716075,49914,,,,
Nov 21,30.11.2021,16420,1374,12158,13.5,4.3,10,19.5,487544,258528,746072,51243,,,,
Dez 21,31.12.2021,23168,1466,15490,14.7,3.8,9.8,20.4,512178,274096,786274,53667,,,,
Jan 22,31.01.2022,10218,888,7934,9.9,3.1,7.7,14.6,523284,282079,805363,54458,,,,
Feb 22,28.02.2022,13453,984,9685,11.7,3.5,8.4,16.8,537721,291834,829555,55515,,,,
Mrz 22,31.03.2022,19835,1315,11691,13.5,3.9,7.9,18.2,558871,303584,862455,57732,,,,
Apr 22,30.04.2022,12692,976,10266,11.7,3.6,9.4,17.6,572539,313900,886439,60040,,,,
Mai 22,31.05.2022,15245,1042,11270,12,3.6,8.9,17.7,588826,325246,914072,62136,,,,
Jun 22,30.06.2022,21888,1083,11962,12.8,3,7,16.9,611797,337255,949052,64546,,,,
Jul 22,31.07.2022,12736,804,7349,11.8,3.3,6.8,15.8,616194,350795,969989,66960,,,,
Aug 22,31.08.2022,12302,819,6780,13.5,4.4,7.4,18.1,596634,363127,959761,69428,,,,
Sep 22,30.09.2022,22481,1701,11618,15.9,5.5,8.2,20.9,620816,374780,995596,71630,,,,
Okt 22,31.10.2022,16861,1996,11108,13.5,7.1,8.9,19.6,639673,385929,1025602,75279,,,,
Nov 22,30.11.2022,20274,2265,12340,15.1,7.8,9.2,21.4,662212,398302,1060514,77318,,,,
Dez 22,31.12.2022,24944,2937,14544,15.8,8.9,9.2,22.2,690093,412882,1102975,82107,,,,
Jan 23,31.01.2023,14629,2051,10301,13.1,7.7,9.2,19.5,706773,423205,1129978,85284,,,,
Feb 23,28.02.2023,19595,1695,10493,15.5,6.4,8.3,20.9,728063,433735,1161798,90803,,,,
Mrz 23,31.03.2023,30635,2318,15722,16.8,6.6,8.6,22.3,761016,449489,1210505,95755,,,,
Apr 23,30.04.2023,17113,2194,10882,12.9,7.5,8.2,18.7,780323,460409,1240732,99404,,,,
Mai 23,31.05.2023,22667,2320,12657,15.6,7.7,8.7,21.4,805310,473084,1278394,100596,,,,
Jun 23,30.06.2023,33280,4068,17935,17.4,9.5,9.4,23.7,842658,491060,1333718,101681,,,,
Jul 23,31.07.2023,16867,2077,13230,13.1,7.0,10.3,20.3,861602,504324,1365926,104723,,,,
Aug 23,31.08.2023,19657,1272,9527,17.3,5.9,8.3,22.5,882531,513877,1396408,107937,,,,
Sep 23,30.09.2023,30173,2297,15699,19.3,7.0,10.0,25.5,915001,529609,1444610,109856,,,,
Okt 23,31.10.2023,25473,3195,14906,16.7,9.4,9.1,23.4,943669,544556,1488225,111209,,,,
Nov 23,30.11.2023,30775,3774,14540,20.1,11.2,9.5,26.3,978218,559124,1537342,114386,,,,
Dez 23,31.12.2023,37355,3032,17058,20.6,8.4,9.4,26.5,1018605,576236,1594841,118009,660000,500000,660000,500000
Jan 24,31.01.2024,20017,1456,10549,16.4,5.2,8.6,21.3,1040078,586822,1626900,120354,,,699000,521667
Feb 24,29.02.2024,25825,2420,11732,18.1,7.9,8.2,23.1,1086323,598579,1666902,123347,,,738000,543333
Mrz 24,31.03.2024,33981,2944,16294,18.9,7.9,9.0,24.5,1105248,614893,1720141,127287,,,777000,565000
Apr 24,30.04.2024,24850,2114,10867,16.9,6.2,7.4,20.9,1132212,625779,1757991,129525,,,816000,586667
Mai 24,31.05.2024,23892,2135,10202,16.9,6.9,7.2,21.0,1158239,636019,1794258,133053,,,855000,608333
Jun 24,30.06.2024,29837,3635,14044,16.4,7.3,7.7,20.6,1191711,650086,1841797,138887,,,894000,630000
Jul 24,31.07.2024,17030,2200,9171,13.5,6.8,7.3,18.0,1210941,659290,1870231,143678,,,933000,651667
Aug 24,31.08.2024,13143,1243,6164,15.3,6.5,7.2,19.6,1225327,665481,1890808,146771,,,972000,673333
Sep 24,30.09.2024,28266,2139,10077,20.3,7.7,7.3,24.3,1255732,675586,1931318,149668,,,1011000,695000
Okt 24,31.10.2024,20889,2234,10892,15.4,7.3,8.0,20.5,1278865,686558,1965423,150052,,,1050000,716667
Nov 24,30.11.2024,23255,2140,11683,17.4,7.6,8.8,23.0,1304260,698394,2002654,152887,,,1089000,738333
Dez 24,31.12.2024,,,,,,,,,,,,,,1128000,760000
Jan 25,31.01.2025,,,,,,,,,,,,,,1167000,781667
Feb 25,28.02.2025,,,,,,,,,,,,,,1206000,803333
Mrz 25,31.03.2025,,,,,,,,,,,,,,1245000,825000
Apr 25,30.04.2025,,,,,,,,,,,,,,1284000,846667
Mai 25,31.05.2025,,,,,,,,,,,,,,1323000,868333
Jun 25,30.06.2025,,,,,,,,,,,,,,1362000,890000
Jul 25,31.07.2025,,,,,,,,,,,,,,1401000,911667
Aug 25,31.08.2025,,,,,,,,,,,,,,1440000,933333
Sep 25,30.09.2025,,,,,,,,,,,,,,1479000,955000
Okt 25,31.10.2025,,,,,,,,,,,,,,1518000,976667
Nov 25,30.11.2025,,,,,,,,,,,,,,1557000,998333
Dez 25,31.12.2025,,,,,,,,,,,,,,1596000,1020000
Jan 26,31.01.2026,,,,,,,,,,,,,,1635000,1041667
Feb 26,28.02.2026,,,,,,,,,,,,,,1674000,1063333
Mrz 26,31.03.2026,,,,,,,,,,,,,,1713000,1085000
Apr 26,30.04.2026,,,,,,,,,,,,,,1752000,1106667
Mai 26,31.05.2026,,,,,,,,,,,,,,1791000,1128333
Jun 26,30.06.2026,,,,,,,,,,,,,,1830000,1150000
Jul 26,31.07.2026,,,,,,,,,,,,,,1869000,1171667
Aug 26,31.08.2026,,,,,,,,,,,,,,1908000,1193333
Sep 26,30.09.2026,,,,,,,,,,,,,,1947000,1215000
Okt 26,31.10.2026,,,,,,,,,,,,,,1986000,1236667
Nov 26,30.11.2026,,,,,,,,,,,,,,2025000,1258333
Dez 26,31.12.2026,,,,,,,,,,,,,,2064000,1280000
Jan 27,31.01.2027,,,,,,,,,,,,,,2103000,1301667
Feb 27,28.02.2027,,,,,,,,,,,,,,2142000,1323333
Mrz 27,31.03.2027,,,,,,,,,,,,,,2181000,1345000
Apr 27,30.04.2027,,,,,,,,,,,,,,2220000,1366667
Mai 27,31.05.2027,,,,,,,,,,,,,,2259000,1388333
Jun 27,30.06.2027,,,,,,,,,,,,,,2298000,1410000
Jul 27,31.07.2027,,,,,,,,,,,,,,2337000,1431667
Aug 27,31.08.2027,,,,,,,,,,,,,,2376000,1453333
Sep 27,30.09.2027,,,,,,,,,,,,,,2415000,1475000
Okt 27,31.10.2027,,,,,,,,,,,,,,2454000,1496667
Nov 27,30.11.2027,,,,,,,,,,,,,,2493000,1518333
Dez 27,31.12.2027,,,,,,,,,,,,,,2532000,1540000
Jan 28,31.01.2028,,,,,,,,,,,,,,2571000,1561667
Feb 28,28.02.2028,,,,,,,,,,,,,,2610000,1583333
Mrz 28,31.03.2028,,,,,,,,,,,,,,2649000,1605000
Apr 28,30.04.2028,,,,,,,,,,,,,,2688000,1626667
Mai 28,31.05.2028,,,,,,,,,,,,,,2727000,1648333
Jun 28,30.06.2028,,,,,,,,,,,,,,2766000,1670000
Jul 28,31.07.2028,,,,,,,,,,,,,,2805000,1691667
Aug 28,31.08.2028,,,,,,,,,,,,,,2844000,1713333
Sep 28,30.09.2028,,,,,,,,,,,,,,2883000,1735000
Okt 28,31.10.2028,,,,,,,,,,,,,,2922000,1756667
Nov 28,30.11.2028,,,,,,,,,,,,,,2961000,1778333
Dez 28,31.12.2028,,,,,,,,,,,,3000000,1800000,3000000,1800000
Jan 29,31.01.2029,,,,,,,,,,,,,,,
Feb 29,28.02.2029,,,,,,,,,,,,,,,
Mrz 29,31.03.2029,,,,,,,,,,,,,,,
Apr 29,30.04.2029,,,,,,,,,,,,,,,
Mai 29,31.05.2029,,,,,,,,,,,,,,,
Jun 29,30.06.2029,,,,,,,,,,,,,,,
Jul 29,31.07.2029,,,,,,,,,,,,,,,
Aug 29,31.08.2029,,,,,,,,,,,,,,,
Sep 29,30.09.2029,,,,,,,,,,,,,,,
Okt 29,31.10.2029,,,,,,,,,,,,,,,
Nov 29,30.11.2029,,,,,,,,,,,,,,,
Dez 29,31.12.2029,,,,,,,,,,,,,,,
Jan 30,31.01.2030,,,,,,,,,,,,,,,
Feb 30,28.02.2030,,,,,,,,,,,,,,,
Mrz 30,31.03.2030,,,,,,,,,,,,,,,
Apr 30,30.04.2030,,,,,,,,,,,,,,,
Mai 30,31.05.2030,,,,,,,,,,,,,,,
Jun 30,30.06.2030,,,,,,,,,,,,,,,
Jul 30,31.07.2030,,,,,,,,,,,,,,,
Aug 30,31.08.2030,,,,,,,,,,,,,,,
Sep 30,30.09.2030,,,,,,,,,,,,,,,
Okt 30,31.10.2030,,,,,,,,,,,,,,,
Nov 30,30.11.2030,,,,,,,,,,,,,,,
Dez 30,31.12.2030,,,,,,,,,,,,,,,