﻿Date;Filière;frontiere;Valeur (TWh)
2005-01;Exports;Belgium/Germany;0,16
2005-02;Exports;Belgium/Germany;0,13
2005-03;Exports;Belgium/Germany;0,53
2005-04;Exports;Belgium/Germany;0,25
2005-05;Exports;Belgium/Germany;1,13
2005-06;Exports;Belgium/Germany;1,12
2005-07;Exports;Belgium/Germany;0,23
2005-08;Exports;Belgium/Germany;1,72
2005-09;Exports;Belgium/Germany;1,18
2005-10;Exports;Belgium/Germany;0,78
2005-11;Exports;Belgium/Germany;0,89
2005-12;Exports;Belgium/Germany;0,11
2006-01;Exports;Belgium/Germany;0,05
2006-02;Exports;Belgium/Germany;0,04
2006-03;Exports;Belgium/Germany;0,29
2006-04;Exports;Belgium/Germany;1,57
2006-05;Exports;Belgium/Germany;1,77
2006-06;Exports;Belgium/Germany;1,37
2006-07;Exports;Belgium/Germany;1,13
2006-08;Exports;Belgium/Germany;2,27
2006-09;Exports;Belgium/Germany;2,15
2006-10;Exports;Belgium/Germany;1,82
2006-11;Exports;Belgium/Germany;1,79
2006-12;Exports;Belgium/Germany;0,64
2007-01;Exports;Belgium/Germany;0,34
2007-02;Exports;Belgium/Germany;0,86
2007-03;Exports;Belgium/Germany;0,76
2007-04;Exports;Belgium/Germany;0,6
2007-05;Exports;Belgium/Germany;1,18
2007-06;Exports;Belgium/Germany;1,6
2007-07;Exports;Belgium/Germany;0,92
2007-08;Exports;Belgium/Germany;1,69
2007-09;Exports;Belgium/Germany;0,71
2007-10;Exports;Belgium/Germany;0,58
2007-11;Exports;Belgium/Germany;0,06
2007-12;Exports;Belgium/Germany;0,03
2008-01;Exports;Belgium/Germany;0,16
2008-02;Exports;Belgium/Germany;0,36
2008-03;Exports;Belgium/Germany;0,09
2008-04;Exports;Belgium/Germany;0,27
2008-05;Exports;Belgium/Germany;1,11
2008-06;Exports;Belgium/Germany;1,4
2008-07;Exports;Belgium/Germany;0,64
2008-08;Exports;Belgium/Germany;1,11
2008-09;Exports;Belgium/Germany;0,55
2008-10;Exports;Belgium/Germany;0,03
2008-11;Exports;Belgium/Germany;0,25
2008-12;Exports;Belgium/Germany;0,06
2009-01;Exports;Belgium/Germany;0,27
2009-02;Exports;Belgium/Germany;0,23
2009-03;Exports;Belgium/Germany;0,44
2009-04;Exports;Belgium/Germany;0,09
2009-05;Exports;Belgium/Germany;0,38
2009-06;Exports;Belgium/Germany;0,19
2009-07;Exports;Belgium/Germany;0,06
2009-08;Exports;Belgium/Germany;0,17
2009-09;Exports;Belgium/Germany;0,14
2009-10;Exports;Belgium/Germany;0,03
2009-11;Exports;Belgium/Germany;0,02
2009-12;Exports;Belgium/Germany;0,07
2010-01;Exports;Belgium/Germany;0,04
2010-02;Exports;Belgium/Germany;0,11
2010-03;Exports;Belgium/Germany;0,34
2010-04;Exports;Belgium/Germany;0,24
2010-05;Exports;Belgium/Germany;0,24
2010-06;Exports;Belgium/Germany;1,29
2010-07;Exports;Belgium/Germany;0,76
2010-08;Exports;Belgium/Germany;1,34
2010-09;Exports;Belgium/Germany;0,5
2010-10;Exports;Belgium/Germany;0,16
2010-11;Exports;Belgium/Germany;0,27
2010-12;Exports;Belgium/Germany;0,12
2011-01;Exports;Belgium/Germany;0,83
2011-02;Exports;Belgium/Germany;0,63
2011-03;Exports;Belgium/Germany;1,26
2011-04;Exports;Belgium/Germany;1,25
2011-05;Exports;Belgium/Germany;1,5
2011-06;Exports;Belgium/Germany;1,75
2011-07;Exports;Belgium/Germany;1,76
2011-08;Exports;Belgium/Germany;1,28
2011-09;Exports;Belgium/Germany;0,96
2011-10;Exports;Belgium/Germany;0,42
2011-11;Exports;Belgium/Germany;0,57
2011-12;Exports;Belgium/Germany;0,49
2012-01;Exports;Belgium/Germany;0,7
2012-02;Exports;Belgium/Germany;
2012-03;Exports;Belgium/Germany;0,66
2012-04;Exports;Belgium/Germany;0,54
2012-05;Exports;Belgium/Germany;1,2
2012-06;Exports;Belgium/Germany;0,98
2012-07;Exports;Belgium/Germany;0,61
2012-08;Exports;Belgium/Germany;1,02
2012-09;Exports;Belgium/Germany;0,94
2012-10;Exports;Belgium/Germany;0,62
2012-11;Exports;Belgium/Germany;0,84
2012-12;Exports;Belgium/Germany;1,12
2013-01;Exports;Belgium/Germany;0,4
2013-02;Exports;Belgium/Germany;0,15
2013-03;Exports;Belgium/Germany;0,1
2013-04;Exports;Belgium/Germany;0,84
2013-05;Exports;Belgium/Germany;1,89
2013-06;Exports;Belgium/Germany;1,7
2013-07;Exports;Belgium/Germany;1,29
2013-08;Exports;Belgium/Germany;1,74
2013-09;Exports;Belgium/Germany;0,96
2013-10;Exports;Belgium/Germany;0,37
2013-11;Exports;Belgium/Germany;0,3
2013-12;Exports;Belgium/Germany;0,25
2014-01;Exports;Belgium/Germany;0,93
2014-02;Exports;Belgium/Germany;0,35
2014-03;Exports;Belgium/Germany;0,66
2014-04;Exports;Belgium/Germany;0,79
2014-05;Exports;Belgium/Germany;1,6
2014-06;Exports;Belgium/Germany;1,51
2014-07;Exports;Belgium/Germany;2,45
2014-08;Exports;Belgium/Germany;2,26
2014-09;Exports;Belgium/Germany;0,81
2014-10;Exports;Belgium/Germany;0,31
2014-11;Exports;Belgium/Germany;0,79
2014-12;Exports;Belgium/Germany;0,63
2015-01;Exports;Belgium/Germany;0,26
2015-02;Exports;Belgium/Germany;0,05
2015-03;Exports;Belgium/Germany;0,19
2015-04;Exports;Belgium/Germany;0,35
2015-05;Exports;Belgium/Germany;1,54
2015-06;Exports;Belgium/Germany;1,99
2015-07;Exports;Belgium/Germany;2,17
2015-08;Exports;Belgium/Germany;2,52
2015-09;Exports;Belgium/Germany;1,17
2015-10;Exports;Belgium/Germany;0,77
2015-11;Exports;Belgium/Germany;0,39
2015-12;Exports;Belgium/Germany;0,27
2016-01;Exports;Belgium/Germany;0,39
2016-02;Exports;Belgium/Germany;0,24
2016-03;Exports;Belgium/Germany;0,18
2016-04;Exports;Belgium/Germany;0,77
2016-05;Exports;Belgium/Germany;1,5
2016-06;Exports;Belgium/Germany;2,08
2016-07;Exports;Belgium/Germany;0,68
2016-08;Exports;Belgium/Germany;0,39
2016-09;Exports;Belgium/Germany;0,17
2016-10;Exports;Belgium/Germany;0,12
2016-11;Exports;Belgium/Germany;0,03
2016-12;Exports;Belgium/Germany;0,04
2017-01;Exports;Belgium/Germany;0,06
2017-02;Exports;Belgium/Germany;0,09
2017-03;Exports;Belgium/Germany;0,46
2017-04;Exports;Belgium/Germany;0,68
2017-05;Exports;Belgium/Germany;1,13
2017-06;Exports;Belgium/Germany;0,41
2017-07;Exports;Belgium/Germany;0,34
2017-08;Exports;Belgium/Germany;0,48
2017-09;Exports;Belgium/Germany;0,25
2017-10;Exports;Belgium/Germany;0,01
2017-11;Exports;Belgium/Germany;0,01
2017-12;Exports;Belgium/Germany;0,02
2018-01;Exports;Belgium/Germany;0,68
2018-02;Exports;Belgium/Germany;0,02
2018-03;Exports;Belgium/Germany;0,62
2018-04;Exports;Belgium/Germany;1,27
2018-05;Exports;Belgium/Germany;2,69
2018-06;Exports;Belgium/Germany;2,58
2018-07;Exports;Belgium/Germany;1,49
2018-08;Exports;Belgium/Germany;1,21
2018-09;Exports;Belgium/Germany;1,65
2018-10;Exports;Belgium/Germany;0,97
2018-11;Exports;Belgium/Germany;0,59
2018-12;Exports;Belgium/Germany;0,72
2019-01;Exports;Belgium/Germany;0,11
2019-02;Exports;Belgium/Germany;0,53
2019-03;Exports;Belgium/Germany;0,76
2019-04;Exports;Belgium/Germany;1,01
2019-05;Exports;Belgium/Germany;2,19
2019-06;Exports;Belgium/Germany;2,31
2019-07;Exports;Belgium/Germany;1,38
2019-08;Exports;Belgium/Germany;1,67
2019-09;Exports;Belgium/Germany;0,85
2019-10;Exports;Belgium/Germany;0,54
2019-11;Exports;Belgium/Germany;0,51
2019-12;Exports;Belgium/Germany;1,13
2020-01;Exports;Belgium/Germany;0,35
2020-02;Exports;Belgium/Germany;0,87
2020-03;Exports;Belgium/Germany;1,13
2020-04;Exports;Belgium/Germany;2,13
2020-05;Exports;Belgium/Germany;1,87
2020-06;Exports;Belgium/Germany;1,12
2020-07;Exports;Belgium/Germany;0,37
2020-08;Exports;Belgium/Germany;0,66
2020-09;Exports;Belgium/Germany;0,37
2020-10;Exports;Belgium/Germany;0,45
2020-11;Exports;Belgium/Germany;0,61
2020-12;Exports;Belgium/Germany;0,33
2021-01;Exports;Belgium/Germany;0,39
2021-02;Exports;Belgium/Germany;1
2021-03;Exports;Belgium/Germany;0,4
2021-04;Exports;Belgium/Germany;0,23
2021-05;Exports;Belgium/Germany;1,04
2021-06;Exports;Belgium/Germany;1,32
2021-07;Exports;Belgium/Germany;0,95
2021-08;Exports;Belgium/Germany;1,07
2021-09;Exports;Belgium/Germany;0,68
2021-10;Exports;Belgium/Germany;0,3
2021-11;Exports;Belgium/Germany;0,13
2021-12;Exports;Belgium/Germany;0,12
2022-01;Exports;Belgium/Germany;0,07
2022-02;Exports;Belgium/Germany;0,01
2022-03;Exports;Belgium/Germany;0,09
2022-04;Exports;Belgium/Germany;0,25
2022-05;Exports;Belgium/Germany;0,46
2022-06;Exports;Belgium/Germany;0,11
2022-07;Exports;Belgium/Germany;0,01
2022-08;Exports;Belgium/Germany;0,19
2022-09;Exports;Belgium/Germany;0,05
2022-10;Exports;Belgium/Germany;0,31
2022-11;Exports;Belgium/Germany;0,07
2022-12;Exports;Belgium/Germany;0,25
2023-01;Exports;Belgium/Germany;0,56
2023-02;Exports;Belgium/Germany;0,08
2023-03;Exports;Belgium/Germany;0,6
2023-04;Exports;Belgium/Germany;0,68
2023-05;Exports;Belgium/Germany;2,02
2023-06;Exports;Belgium/Germany;1,4
2023-07;Exports;Belgium/Germany;0,73
2023-08;Exports;Belgium/Germany;1,21
2023-09;Exports;Belgium/Germany;1,9
2023-10;Exports;Belgium/Germany;2,11
2023-11;Exports;Belgium/Germany;2,06
2023-12;Exports;Belgium/Germany;1,74
2024-01;Exports;Belgium/Germany;1,59
2024-02;Exports;Belgium/Germany;2,2
2024-03;Exports;Belgium/Germany;2,8
2024-04;Exports;Belgium/Germany;2,2
2024-05;Exports;Belgium/Germany;3,51
2024-06;Exports;Belgium/Germany;3,26
2024-07;Exports;Belgium/Germany;3,1
2024-08;Exports;Belgium/Germany;2,62
2024-09;Exports;Belgium/Germany;3,19
2024-10;Exports;Belgium/Germany;3,65
2024-11;Exports;Belgium/Germany;1,85
2005-01;Imports;Belgium/Germany;-0,7
2005-02;Imports;Belgium/Germany;-1,22
2005-03;Imports;Belgium/Germany;-1,18
2005-04;Imports;Belgium/Germany;-0,62
2005-05;Imports;Belgium/Germany;-0,09
2005-06;Imports;Belgium/Germany;-0,09
2005-07;Imports;Belgium/Germany;-0,62
2005-08;Imports;Belgium/Germany;
2005-09;Imports;Belgium/Germany;-0,02
2005-10;Imports;Belgium/Germany;-0,24
2005-11;Imports;Belgium/Germany;-0,31
2005-12;Imports;Belgium/Germany;-1,29
2006-01;Imports;Belgium/Germany;-1,19
2006-02;Imports;Belgium/Germany;-1,5
2006-03;Imports;Belgium/Germany;-1,05
2006-04;Imports;Belgium/Germany;-0,05
2006-05;Imports;Belgium/Germany;-0,04
2006-06;Imports;Belgium/Germany;-0,05
2006-07;Imports;Belgium/Germany;-0,06
2006-08;Imports;Belgium/Germany;
2006-09;Imports;Belgium/Germany;-0,01
2006-10;Imports;Belgium/Germany;-0,01
2006-11;Imports;Belgium/Germany;-0,05
2006-12;Imports;Belgium/Germany;-0,98
2007-01;Imports;Belgium/Germany;-0,8
2007-02;Imports;Belgium/Germany;-0,28
2007-03;Imports;Belgium/Germany;-0,63
2007-04;Imports;Belgium/Germany;-0,65
2007-05;Imports;Belgium/Germany;-0,06
2007-06;Imports;Belgium/Germany;-0,02
2007-07;Imports;Belgium/Germany;-0,06
2007-08;Imports;Belgium/Germany;-0,01
2007-09;Imports;Belgium/Germany;-0,19
2007-10;Imports;Belgium/Germany;-0,66
2007-11;Imports;Belgium/Germany;-2,05
2007-12;Imports;Belgium/Germany;-1,95
2008-01;Imports;Belgium/Germany;-1,14
2008-02;Imports;Belgium/Germany;-0,95
2008-03;Imports;Belgium/Germany;-1,38
2008-04;Imports;Belgium/Germany;-0,77
2008-05;Imports;Belgium/Germany;-0,13
2008-06;Imports;Belgium/Germany;-0,05
2008-07;Imports;Belgium/Germany;-0,37
2008-08;Imports;Belgium/Germany;-0,23
2008-09;Imports;Belgium/Germany;-0,36
2008-10;Imports;Belgium/Germany;-1,72
2008-11;Imports;Belgium/Germany;-1,02
2008-12;Imports;Belgium/Germany;-1,51
2009-01;Imports;Belgium/Germany;-1,35
2009-02;Imports;Belgium/Germany;-0,88
2009-03;Imports;Belgium/Germany;-0,78
2009-04;Imports;Belgium/Germany;-1,4
2009-05;Imports;Belgium/Germany;-0,6
2009-06;Imports;Belgium/Germany;-1,44
2009-07;Imports;Belgium/Germany;-1,69
2009-08;Imports;Belgium/Germany;-1,03
2009-09;Imports;Belgium/Germany;-1,33
2009-10;Imports;Belgium/Germany;-2,33
2009-11;Imports;Belgium/Germany;-1,99
2009-12;Imports;Belgium/Germany;-2,05
2010-01;Imports;Belgium/Germany;-2,43
2010-02;Imports;Belgium/Germany;-1,65
2010-03;Imports;Belgium/Germany;-1,37
2010-04;Imports;Belgium/Germany;-0,91
2010-05;Imports;Belgium/Germany;-1,02
2010-06;Imports;Belgium/Germany;-0,14
2010-07;Imports;Belgium/Germany;-0,36
2010-08;Imports;Belgium/Germany;-0,06
2010-09;Imports;Belgium/Germany;-0,46
2010-10;Imports;Belgium/Germany;-1,79
2010-11;Imports;Belgium/Germany;-1,35
2010-12;Imports;Belgium/Germany;-1,44
2011-01;Imports;Belgium/Germany;-0,89
2011-02;Imports;Belgium/Germany;-0,5
2011-03;Imports;Belgium/Germany;-0,49
2011-04;Imports;Belgium/Germany;-0,17
2011-05;Imports;Belgium/Germany;-0,04
2011-06;Imports;Belgium/Germany;-0,04
2011-07;Imports;Belgium/Germany;-0,03
2011-08;Imports;Belgium/Germany;-0,13
2011-09;Imports;Belgium/Germany;-0,22
2011-10;Imports;Belgium/Germany;-0,87
2011-11;Imports;Belgium/Germany;-0,53
2011-12;Imports;Belgium/Germany;-0,61
2012-01;Imports;Belgium/Germany;-0,76
2012-02;Imports;Belgium/Germany;-2,43
2012-03;Imports;Belgium/Germany;-0,67
2012-04;Imports;Belgium/Germany;-0,57
2012-05;Imports;Belgium/Germany;-0,12
2012-06;Imports;Belgium/Germany;-0,07
2012-07;Imports;Belgium/Germany;-0,33
2012-08;Imports;Belgium/Germany;-0,14
2012-09;Imports;Belgium/Germany;-0,17
2012-10;Imports;Belgium/Germany;-0,3
2012-11;Imports;Belgium/Germany;-0,2
2012-12;Imports;Belgium/Germany;-0,26
2013-01;Imports;Belgium/Germany;-0,66
2013-02;Imports;Belgium/Germany;-1,28
2013-03;Imports;Belgium/Germany;-0,98
2013-04;Imports;Belgium/Germany;-0,28
2013-05;Imports;Belgium/Germany;-0,01
2013-06;Imports;Belgium/Germany;-0,02
2013-07;Imports;Belgium/Germany;-0,09
2013-08;Imports;Belgium/Germany;-0,06
2013-09;Imports;Belgium/Germany;-0,16
2013-10;Imports;Belgium/Germany;-0,63
2013-11;Imports;Belgium/Germany;-1,18
2013-12;Imports;Belgium/Germany;-1,51
2014-01;Imports;Belgium/Germany;-0,32
2014-02;Imports;Belgium/Germany;-0,42
2014-03;Imports;Belgium/Germany;-0,51
2014-04;Imports;Belgium/Germany;-0,11
2014-05;Imports;Belgium/Germany;-0,02
2014-06;Imports;Belgium/Germany;-0,07
2014-07;Imports;Belgium/Germany;-0,01
2014-08;Imports;Belgium/Germany;
2014-09;Imports;Belgium/Germany;-0,09
2014-10;Imports;Belgium/Germany;-0,47
2014-11;Imports;Belgium/Germany;-0,22
2014-12;Imports;Belgium/Germany;-0,27
2015-01;Imports;Belgium/Germany;-0,81
2015-02;Imports;Belgium/Germany;-1,03
2015-03;Imports;Belgium/Germany;-0,45
2015-04;Imports;Belgium/Germany;-0,25
2015-05;Imports;Belgium/Germany;-0,01
2015-06;Imports;Belgium/Germany;-0,02
2015-07;Imports;Belgium/Germany;-0,08
2015-08;Imports;Belgium/Germany;-0,03
2015-09;Imports;Belgium/Germany;-0,14
2015-10;Imports;Belgium/Germany;-0,29
2015-11;Imports;Belgium/Germany;-0,68
2015-12;Imports;Belgium/Germany;-1,17
2016-01;Imports;Belgium/Germany;-1,37
2016-02;Imports;Belgium/Germany;-1,27
2016-03;Imports;Belgium/Germany;-1,3
2016-04;Imports;Belgium/Germany;-0,56
2016-05;Imports;Belgium/Germany;-0,18
2016-06;Imports;Belgium/Germany;-0,01
2016-07;Imports;Belgium/Germany;-0,44
2016-08;Imports;Belgium/Germany;-0,85
2016-09;Imports;Belgium/Germany;-0,96
2016-10;Imports;Belgium/Germany;-1,39
2016-11;Imports;Belgium/Germany;-1,71
2016-12;Imports;Belgium/Germany;-1,89
2017-01;Imports;Belgium/Germany;-1,52
2017-02;Imports;Belgium/Germany;-1,15
2017-03;Imports;Belgium/Germany;-1,04
2017-04;Imports;Belgium/Germany;-0,26
2017-05;Imports;Belgium/Germany;-0,28
2017-06;Imports;Belgium/Germany;-0,71
2017-07;Imports;Belgium/Germany;-0,65
2017-08;Imports;Belgium/Germany;-0,6
2017-09;Imports;Belgium/Germany;-0,8
2017-10;Imports;Belgium/Germany;-2,2
2017-11;Imports;Belgium/Germany;-2,71
2017-12;Imports;Belgium/Germany;-2,94
2018-01;Imports;Belgium/Germany;-0,9
2018-02;Imports;Belgium/Germany;-2,69
2018-03;Imports;Belgium/Germany;-1,46
2018-04;Imports;Belgium/Germany;-0,33
2018-05;Imports;Belgium/Germany;-0,04
2018-06;Imports;Belgium/Germany;-0,02
2018-07;Imports;Belgium/Germany;-0,1
2018-08;Imports;Belgium/Germany;-0,4
2018-09;Imports;Belgium/Germany;-0,22
2018-10;Imports;Belgium/Germany;-0,4
2018-11;Imports;Belgium/Germany;-0,88
2018-12;Imports;Belgium/Germany;-0,96
2019-01;Imports;Belgium/Germany;-2,71
2019-02;Imports;Belgium/Germany;-1,27
2019-03;Imports;Belgium/Germany;-1,06
2019-04;Imports;Belgium/Germany;-0,71
2019-05;Imports;Belgium/Germany;-0,06
2019-06;Imports;Belgium/Germany;-0,08
2019-07;Imports;Belgium/Germany;-0,21
2019-08;Imports;Belgium/Germany;-0,09
2019-09;Imports;Belgium/Germany;-0,4
2019-10;Imports;Belgium/Germany;-0,72
2019-11;Imports;Belgium/Germany;-1,63
2019-12;Imports;Belgium/Germany;-1,35
2020-01;Imports;Belgium/Germany;-1,29
2020-02;Imports;Belgium/Germany;-0,64
2020-03;Imports;Belgium/Germany;-0,75
2020-04;Imports;Belgium/Germany;-0,3
2020-05;Imports;Belgium/Germany;-0,13
2020-06;Imports;Belgium/Germany;-0,3
2020-07;Imports;Belgium/Germany;-0,79
2020-08;Imports;Belgium/Germany;-0,58
2020-09;Imports;Belgium/Germany;-1,15
2020-10;Imports;Belgium/Germany;-0,95
2020-11;Imports;Belgium/Germany;-1,09
2020-12;Imports;Belgium/Germany;-1,67
2021-01;Imports;Belgium/Germany;-2,62
2021-02;Imports;Belgium/Germany;-1,01
2021-03;Imports;Belgium/Germany;-1,88
2021-04;Imports;Belgium/Germany;-2,26
2021-05;Imports;Belgium/Germany;-0,78
2021-06;Imports;Belgium/Germany;-0,49
2021-07;Imports;Belgium/Germany;-0,44
2021-08;Imports;Belgium/Germany;-0,28
2021-09;Imports;Belgium/Germany;-0,59
2021-10;Imports;Belgium/Germany;-1,48
2021-11;Imports;Belgium/Germany;-2,8
2021-12;Imports;Belgium/Germany;-3,07
2022-01;Imports;Belgium/Germany;-3,19
2022-02;Imports;Belgium/Germany;-2,95
2022-03;Imports;Belgium/Germany;-3,28
2022-04;Imports;Belgium/Germany;-1,93
2022-05;Imports;Belgium/Germany;-1,18
2022-06;Imports;Belgium/Germany;-1,7
2022-07;Imports;Belgium/Germany;-2,58
2022-08;Imports;Belgium/Germany;-2,16
2022-09;Imports;Belgium/Germany;-2,5
2022-10;Imports;Belgium/Germany;-1,85
2022-11;Imports;Belgium/Germany;-2,73
2022-12;Imports;Belgium/Germany;-3,27
2023-01;Imports;Belgium/Germany;-2,66
2023-02;Imports;Belgium/Germany;-3,1
2023-03;Imports;Belgium/Germany;-1,98
2023-04;Imports;Belgium/Germany;-1,1
2023-05;Imports;Belgium/Germany;-0,22
2023-06;Imports;Belgium/Germany;-0,38
2023-07;Imports;Belgium/Germany;-0,97
2023-08;Imports;Belgium/Germany;-0,43
2023-09;Imports;Belgium/Germany;-0,18
2023-10;Imports;Belgium/Germany;-0,32
2023-11;Imports;Belgium/Germany;-0,46
2023-12;Imports;Belgium/Germany;-0,84
2024-01;Imports;Belgium/Germany;-0,93
2024-02;Imports;Belgium/Germany;-0,5
2024-03;Imports;Belgium/Germany;-0,13
2024-04;Imports;Belgium/Germany;-0,24
2024-05;Imports;Belgium/Germany;-0,18
2024-06;Imports;Belgium/Germany;-0,12
2024-07;Imports;Belgium/Germany;-0,18
2024-08;Imports;Belgium/Germany;-0,29
2024-09;Imports;Belgium/Germany;-0,16
2024-10;Imports;Belgium/Germany;-0,08
2024-11;Imports;Belgium/Germany;-0,29
2005-01;Balance;Belgium/Germany;-0,55
2005-02;Balance;Belgium/Germany;-1,09
2005-03;Balance;Belgium/Germany;-0,65
2005-04;Balance;Belgium/Germany;-0,36
2005-05;Balance;Belgium/Germany;1,04
2005-06;Balance;Belgium/Germany;1,03
2005-07;Balance;Belgium/Germany;-0,39
2005-08;Balance;Belgium/Germany;1,72
2005-09;Balance;Belgium/Germany;1,16
2005-10;Balance;Belgium/Germany;0,54
2005-11;Balance;Belgium/Germany;0,58
2005-12;Balance;Belgium/Germany;-1,18
2006-01;Balance;Belgium/Germany;-1,14
2006-02;Balance;Belgium/Germany;-1,46
2006-03;Balance;Belgium/Germany;-0,76
2006-04;Balance;Belgium/Germany;1,52
2006-05;Balance;Belgium/Germany;1,73
2006-06;Balance;Belgium/Germany;1,32
2006-07;Balance;Belgium/Germany;1,07
2006-08;Balance;Belgium/Germany;2,27
2006-09;Balance;Belgium/Germany;2,15
2006-10;Balance;Belgium/Germany;1,82
2006-11;Balance;Belgium/Germany;1,74
2006-12;Balance;Belgium/Germany;-0,34
2007-01;Balance;Belgium/Germany;-0,45
2007-02;Balance;Belgium/Germany;0,57
2007-03;Balance;Belgium/Germany;0,13
2007-04;Balance;Belgium/Germany;-0,05
2007-05;Balance;Belgium/Germany;1,12
2007-06;Balance;Belgium/Germany;1,59
2007-07;Balance;Belgium/Germany;0,85
2007-08;Balance;Belgium/Germany;1,68
2007-09;Balance;Belgium/Germany;0,53
2007-10;Balance;Belgium/Germany;-0,08
2007-11;Balance;Belgium/Germany;-1,99
2007-12;Balance;Belgium/Germany;-1,92
2008-01;Balance;Belgium/Germany;-0,97
2008-02;Balance;Belgium/Germany;-0,58
2008-03;Balance;Belgium/Germany;-1,29
2008-04;Balance;Belgium/Germany;-0,5
2008-05;Balance;Belgium/Germany;0,98
2008-06;Balance;Belgium/Germany;1,36
2008-07;Balance;Belgium/Germany;0,27
2008-08;Balance;Belgium/Germany;0,87
2008-09;Balance;Belgium/Germany;0,19
2008-10;Balance;Belgium/Germany;-1,69
2008-11;Balance;Belgium/Germany;-0,77
2008-12;Balance;Belgium/Germany;-1,45
2009-01;Balance;Belgium/Germany;-1,09
2009-02;Balance;Belgium/Germany;-0,65
2009-03;Balance;Belgium/Germany;-0,34
2009-04;Balance;Belgium/Germany;-1,31
2009-05;Balance;Belgium/Germany;-0,22
2009-06;Balance;Belgium/Germany;-1,25
2009-07;Balance;Belgium/Germany;-1,63
2009-08;Balance;Belgium/Germany;-0,86
2009-09;Balance;Belgium/Germany;-1,19
2009-10;Balance;Belgium/Germany;-2,3
2009-11;Balance;Belgium/Germany;-1,97
2009-12;Balance;Belgium/Germany;-1,99
2010-01;Balance;Belgium/Germany;-2,39
2010-02;Balance;Belgium/Germany;-1,54
2010-03;Balance;Belgium/Germany;-1,04
2010-04;Balance;Belgium/Germany;-0,67
2010-05;Balance;Belgium/Germany;-0,78
2010-06;Balance;Belgium/Germany;1,15
2010-07;Balance;Belgium/Germany;0,4
2010-08;Balance;Belgium/Germany;1,28
2010-09;Balance;Belgium/Germany;0,04
2010-10;Balance;Belgium/Germany;-1,64
2010-11;Balance;Belgium/Germany;-1,08
2010-12;Balance;Belgium/Germany;-1,32
2011-01;Balance;Belgium/Germany;-0,06
2011-02;Balance;Belgium/Germany;0,13
2011-03;Balance;Belgium/Germany;0,77
2011-04;Balance;Belgium/Germany;1,09
2011-05;Balance;Belgium/Germany;1,45
2011-06;Balance;Belgium/Germany;1,71
2011-07;Balance;Belgium/Germany;1,73
2011-08;Balance;Belgium/Germany;1,14
2011-09;Balance;Belgium/Germany;0,74
2011-10;Balance;Belgium/Germany;-0,45
2011-11;Balance;Belgium/Germany;0,04
2011-12;Balance;Belgium/Germany;-0,12
2012-01;Balance;Belgium/Germany;-0,06
2012-02;Balance;Belgium/Germany;-2,43
2012-03;Balance;Belgium/Germany;
2012-04;Balance;Belgium/Germany;-0,03
2012-05;Balance;Belgium/Germany;1,08
2012-06;Balance;Belgium/Germany;0,91
2012-07;Balance;Belgium/Germany;0,29
2012-08;Balance;Belgium/Germany;0,88
2012-09;Balance;Belgium/Germany;0,77
2012-10;Balance;Belgium/Germany;0,32
2012-11;Balance;Belgium/Germany;0,64
2012-12;Balance;Belgium/Germany;0,86
2013-01;Balance;Belgium/Germany;-0,27
2013-02;Balance;Belgium/Germany;-1,14
2013-03;Balance;Belgium/Germany;-0,88
2013-04;Balance;Belgium/Germany;0,56
2013-05;Balance;Belgium/Germany;1,89
2013-06;Balance;Belgium/Germany;1,68
2013-07;Balance;Belgium/Germany;1,2
2013-08;Balance;Belgium/Germany;1,69
2013-09;Balance;Belgium/Germany;0,79
2013-10;Balance;Belgium/Germany;-0,26
2013-11;Balance;Belgium/Germany;-0,88
2013-12;Balance;Belgium/Germany;-1,26
2014-01;Balance;Belgium/Germany;0,61
2014-02;Balance;Belgium/Germany;-0,07
2014-03;Balance;Belgium/Germany;0,16
2014-04;Balance;Belgium/Germany;0,68
2014-05;Balance;Belgium/Germany;1,58
2014-06;Balance;Belgium/Germany;1,44
2014-07;Balance;Belgium/Germany;2,45
2014-08;Balance;Belgium/Germany;2,26
2014-09;Balance;Belgium/Germany;0,71
2014-10;Balance;Belgium/Germany;-0,15
2014-11;Balance;Belgium/Germany;0,58
2014-12;Balance;Belgium/Germany;0,36
2015-01;Balance;Belgium/Germany;-0,55
2015-02;Balance;Belgium/Germany;-0,98
2015-03;Balance;Belgium/Germany;-0,26
2015-04;Balance;Belgium/Germany;0,1
2015-05;Balance;Belgium/Germany;1,53
2015-06;Balance;Belgium/Germany;1,97
2015-07;Balance;Belgium/Germany;2,08
2015-08;Balance;Belgium/Germany;2,49
2015-09;Balance;Belgium/Germany;1,03
2015-10;Balance;Belgium/Germany;0,48
2015-11;Balance;Belgium/Germany;-0,29
2015-12;Balance;Belgium/Germany;-0,89
2016-01;Balance;Belgium/Germany;-0,98
2016-02;Balance;Belgium/Germany;-1,03
2016-03;Balance;Belgium/Germany;-1,12
2016-04;Balance;Belgium/Germany;0,21
2016-05;Balance;Belgium/Germany;1,32
2016-06;Balance;Belgium/Germany;2,07
2016-07;Balance;Belgium/Germany;0,23
2016-08;Balance;Belgium/Germany;-0,46
2016-09;Balance;Belgium/Germany;-0,79
2016-10;Balance;Belgium/Germany;-1,27
2016-11;Balance;Belgium/Germany;-1,68
2016-12;Balance;Belgium/Germany;-1,85
2017-01;Balance;Belgium/Germany;-1,47
2017-02;Balance;Belgium/Germany;-1,06
2017-03;Balance;Belgium/Germany;-0,58
2017-04;Balance;Belgium/Germany;0,42
2017-05;Balance;Belgium/Germany;0,85
2017-06;Balance;Belgium/Germany;-0,3
2017-07;Balance;Belgium/Germany;-0,31
2017-08;Balance;Belgium/Germany;-0,12
2017-09;Balance;Belgium/Germany;-0,55
2017-10;Balance;Belgium/Germany;-2,2
2017-11;Balance;Belgium/Germany;-2,7
2017-12;Balance;Belgium/Germany;-2,91
2018-01;Balance;Belgium/Germany;-0,22
2018-02;Balance;Belgium/Germany;-2,67
2018-03;Balance;Belgium/Germany;-0,84
2018-04;Balance;Belgium/Germany;0,94
2018-05;Balance;Belgium/Germany;2,64
2018-06;Balance;Belgium/Germany;2,56
2018-07;Balance;Belgium/Germany;1,39
2018-08;Balance;Belgium/Germany;0,81
2018-09;Balance;Belgium/Germany;1,43
2018-10;Balance;Belgium/Germany;0,57
2018-11;Balance;Belgium/Germany;-0,29
2018-12;Balance;Belgium/Germany;-0,24
2019-01;Balance;Belgium/Germany;-2,59
2019-02;Balance;Belgium/Germany;-0,74
2019-03;Balance;Belgium/Germany;-0,3
2019-04;Balance;Belgium/Germany;0,3
2019-05;Balance;Belgium/Germany;2,13
2019-06;Balance;Belgium/Germany;2,23
2019-07;Balance;Belgium/Germany;1,17
2019-08;Balance;Belgium/Germany;1,58
2019-09;Balance;Belgium/Germany;0,45
2019-10;Balance;Belgium/Germany;-0,18
2019-11;Balance;Belgium/Germany;-1,12
2019-12;Balance;Belgium/Germany;-0,22
2020-01;Balance;Belgium/Germany;-0,94
2020-02;Balance;Belgium/Germany;0,22
2020-03;Balance;Belgium/Germany;0,37
2020-04;Balance;Belgium/Germany;1,82
2020-05;Balance;Belgium/Germany;1,74
2020-06;Balance;Belgium/Germany;0,82
2020-07;Balance;Belgium/Germany;-0,43
2020-08;Balance;Belgium/Germany;0,09
2020-09;Balance;Belgium/Germany;-0,78
2020-10;Balance;Belgium/Germany;-0,49
2020-11;Balance;Belgium/Germany;-0,48
2020-12;Balance;Belgium/Germany;-1,34
2021-01;Balance;Belgium/Germany;-2,23
2021-02;Balance;Belgium/Germany;-0,02
2021-03;Balance;Belgium/Germany;-1,48
2021-04;Balance;Belgium/Germany;-2,03
2021-05;Balance;Belgium/Germany;0,26
2021-06;Balance;Belgium/Germany;0,82
2021-07;Balance;Belgium/Germany;0,5
2021-08;Balance;Belgium/Germany;0,79
2021-09;Balance;Belgium/Germany;0,09
2021-10;Balance;Belgium/Germany;-1,19
2021-11;Balance;Belgium/Germany;-2,67
2021-12;Balance;Belgium/Germany;-2,95
2022-01;Balance;Belgium/Germany;-3,12
2022-02;Balance;Belgium/Germany;-2,93
2022-03;Balance;Belgium/Germany;-3,2
2022-04;Balance;Belgium/Germany;-1,68
2022-05;Balance;Belgium/Germany;-0,71
2022-06;Balance;Belgium/Germany;-1,59
2022-07;Balance;Belgium/Germany;-2,56
2022-08;Balance;Belgium/Germany;-1,97
2022-09;Balance;Belgium/Germany;-2,46
2022-10;Balance;Belgium/Germany;-1,54
2022-11;Balance;Belgium/Germany;-2,66
2022-12;Balance;Belgium/Germany;-3,02
2023-01;Balance;Belgium/Germany;-2,1
2023-02;Balance;Belgium/Germany;-3,02
2023-03;Balance;Belgium/Germany;-1,38
2023-04;Balance;Belgium/Germany;-0,42
2023-05;Balance;Belgium/Germany;1,8
2023-06;Balance;Belgium/Germany;1,02
2023-07;Balance;Belgium/Germany;-0,24
2023-08;Balance;Belgium/Germany;0,78
2023-09;Balance;Belgium/Germany;1,72
2023-10;Balance;Belgium/Germany;1,79
2023-11;Balance;Belgium/Germany;1,61
2023-12;Balance;Belgium/Germany;0,9
2024-01;Balance;Belgium/Germany;0,66
2024-02;Balance;Belgium/Germany;1,7
2024-03;Balance;Belgium/Germany;2,67
2024-04;Balance;Belgium/Germany;1,96
2024-05;Balance;Belgium/Germany;3,33
2024-06;Balance;Belgium/Germany;3,15
2024-07;Balance;Belgium/Germany;2,92
2024-08;Balance;Belgium/Germany;2,33
2024-09;Balance;Belgium/Germany;3,02
2024-10;Balance;Belgium/Germany;3,57
2024-11;Balance;Belgium/Germany;1,55