﻿quarters,date,actual,add_mw,add_gw,plan_low,plan_high,plan_low_ppe3,plan_high_ppe3,plan_belfort,plan_low_linear,plan_high_linear,plan_belfort_linear,opentrance_min,opentrance_max,futurs50_min,futurs50_max,add_plan_linear_low,add_plan_linear_high,add_plan_belfort
Dec 2008,31.12.2008,0.074,,,,,,,,, ,,,,,,,,
Mrz 2009,31.03.2009,0.109,35,0.035,,,,,,, ,,,,,,,,
Jun 2009,30.06.2009,0.153,44,0.044,,,,,,, ,,,,,,,,
Sep 2009,30.09.2009,0.203,50,0.05,,,,,,, ,,,,,,,,
Dec 2009,31.12.2009,0.28,77,0.077,,,,,,, ,,,,,,,,
Mrz 2010,31.03.2010,0.387,107,0.107,,,,,,, ,,,,,,,,
Jun 2010,30.06.2010,0.545,158,0.158,,,,,,, ,,,,,,,,
Sep 2010,30.09.2010,0.787,242,0.242,,,,,,, ,,,,,,,,
Dec 2010,31.12.2010,1.045,258,0.258,,,,,,, ,,,,,,,,
Mrz 2011,31.03.2011,1.385,340,0.34,,,,,,, ,,,,,,,,
Jun 2011,30.06.2011,1.79,405,0.405,,,,,,, ,,,,,,,,
Sep 2011,30.09.2011,2.255,465,0.465,,,,,,, ,,,,,,,,
Dec 2011,31.12.2011,2.676,421,0.421,,,,,,, ,,,,,,,,
Mrz 2012,31.03.2012,3.04,364,0.364,,,,,,, ,,,,,,,,
Jun 2012,30.06.2012,3.338,298,0.298,,,,,,, ,,,,,,,,
Sep 2012,30.09.2012,3.524,186,0.186,,,,,,, ,,,,,,,,
Dec 2012,31.12.2012,3.638,114,0.114,,,,,,, ,,,,,,,,
Mrz 2013,31.03.2013,3.749,111,0.111,,,,,,, ,,,,,,,,
Jun 2013,30.06.2013,3.935,186,0.186,,,,,,, ,,,,,,,,
Sep 2013,30.09.2013,4.186,251,0.251,,,,,,, ,,,,,,,,
Dec 2013,31.12.2013,4.38,194,0.194,,,,,,, ,,,,,,,,
Mrz 2014,31.03.2014,4.579,199,0.199,,,,,,, ,,,,,,,,
Jun 2014,30.06.2014,4.798,219,0.219,,,,,,, ,,,,,,,,
Sep 2014,30.09.2014,5.131,333,0.333,,,,,,, ,,,,,,,,
Dec 2014,31.12.2014,5.357,226,0.226,,,,,,, ,,,,,,,,
Mrz 2015,31.03.2015,5.578,221,0.221,,,,,,, ,,,,,,,,
Jun 2015,30.06.2015,5.743,165,0.165,,,,,,, ,,,,,,,,
Sep 2015,30.09.2015,6.142,399,0.399,,,,,,, ,,,,,,,,
Dec 2015,31.12.2015,6.238,96,0.096,,,,,,, ,,,,,,,,
Mrz 2016,31.03.2016,6.426,188,0.188,,,,,,, ,,,,,,,,
Jun 2016,30.06.2016,6.586,160,0.16,,,,,,, ,,,,,,,,
Sep 2016,30.09.2016,6.711,125,0.125,,,,,,, ,,,,,,,,
Dec 2016,31.12.2016,6.825,114,0.114,,,,,,, ,,,,,,,,
Mrz 2017,31.03.2017,6.926,101,0.101,,,,,,, ,,,,,,,,
Jun 2017,30.06.2017,7.135,209,0.209,,,,,,, ,,,,,,,,
Sep 2017,30.09.2017,7.318,183,0.183,,,,,,, ,,,,,,,,
Dec 2017,31.12.2017,7.744,426,0.426,,,,,,, ,,,,,,,,
Mrz 2018,31.03.2018,8.008,264,0.264,,,,,,, ,,,,,,,,
Jun 2018,30.06.2018,8.247,239,0.239,,,,,,, ,,,,,,,,
Sep 2018,30.09.2018,8.479,232,0.232,,,,,,, ,,,,,,,,
Dec 2018,31.12.2018,8.648,169,0.169,,,,,,, ,,,,,,,,
Mrz 2019,31.03.2019,8.817,169,0.169,,,,,,, ,,,,,,,,
Jun 2019,30.06.2019,9.059,242,0.242,,,,,,, ,,,,,,,,
Sep 2019,30.09.2019,9.369,310,0.31,,,,,,, ,,,,,,,,
Dec 2019,31.12.2019,9.601,232,0.232,,,,,,, ,,,,,,,,
Mrz 2020,31.03.2020,9.813,212,0.212,,,,,,9.813, ,,,,,,,,
Jun 2020,30.06.2020,10.021,208,0.208,,,,,,10.499, ,,,,,,,,
Sep 2020,30.09.2020,10.347,326,0.326,,,,,,11.185, ,,,,,,0.688,,
Dec 2020,31.12.2020,10.818,471,0.471,,,,,,11.870, ,,,,,,0.688,,
Mrz 2021,31.03.2021,11.595,777,0.777,,,,,,12.556, ,,,,,,0.688,,
Jun 2021,30.06.2021,12.328,733,0.733,,,,,,13.242, ,,,,,,0.688,,
Sep 2021,30.09.2021,12.945,617,0.617,,,,,,13.928, ,,,,,,0.688,,
Dec 2021,31.12.2021,13.629,684,0.684,,,,,,14.614, ,,,,,,0.688,,
Mrz 2022,31.03.2022,14.221,592,0.592,,,,,,15.299, ,,,,,,0.688,,
Jun 2022,30.06.2022,14.831,610,0.61,,,,,,15.985, ,,,,,,0.688,,
Sep 2022,30.09.2022,15.532,701,0.701,,,,,,16.671, ,,,,,,0.688,,
Dec 2022,31.12.2022,16.261,729,0.729,,,,,,17.357, ,,,,,,0.688,,
Mrz 2023,31.03.2023,16.86,599,0.599,,,,,,18.043, ,,,,,,0.688,,
Jun 2023,30.06.2023,17.662,802,0.802,,,,,,18.728, ,,,,,,0.688,,
Sep 2023,30.09.2023,18.482,820,0.82,,,,,,19.414, ,,,,,,0.688,,
Dec 2023,31.12.2023,19.457,975,0.975,20.1,,,,,20.1,20.1,,,,,,0.688,,
Mrz 2024,31.03.2024,20.498,1041,1.041,,,,,,20.85,21.295,,,,,,0.75,1.195,
Jun 2024,30.06.2024,21.582,1084,1.084,,,,,,21.6,22.49,,,,,,0.75,1.195,
Sep 2024,30.09.2024,22.936,1354,1.354,,,,,,22.35,23.685,,,,,,0.75,1.195,
Dec 2024,31.12.2024,,,,,,,,,23.1,24.88,,,,,,0.75,1.195,
Mrz 2025,31.03.2025,,,,,,,,,23.85,26.075,,,,,,0.75,1.195,
Jun 2025,30.06.2025,,,,,,,,,24.6,27.27,,,,,,0.75,1.195,
Sep 2025,30.09.2025,,,,,,,,,25.35,28.465,,,,,,0.75,1.195,
Dec 2025,31.12.2025,,,,,,,,,26.1,29.66,,15.38,43.13,,,0.75,1.195,
Mrz 2026,31.03.2026,,,,,,,,,26.85,30.855,,17.854,45.604,,,0.75,1.195,
Jun 2026,30.06.2026,,,,,,,,,27.6,32.05,,20.328,48.078,,,0.75,1.195,
Sep 2026,30.09.2026,,,,,,,,,28.35,33.245,,22.802,50.552,,,0.75,1.195,
Dec 2026,31.12.2026,,,,,,,,,29.1,34.44,,25.276,53.026,,,0.75,1.195,
Mrz 2027,31.03.2027,,,,,,,,,29.85,35.635,,27.75,55.5,,,0.75,1.195,
Jun 2027,30.06.2027,,,,,,,,,30.6,36.83,,30.224,57.974,,,0.75,1.195,
Sep 2027,30.09.2027,,,,,,,,,31.35,38.025,,32.698,60.448,,,0.75,1.195,
Dec 2027,31.12.2027,,,,,,,,,32.1,39.22,,35.172,62.922,,,0.75,1.195,
Mrz 2028,31.03.2028,,,,,,,,,32.85,40.415,,37.646,65.396,,,0.75,1.195,
Jun 2028,30.06.2028,,,,,,,,,33.6,41.61,,40.12,67.87,,,0.75,1.195,
Sep 2028,30.09.2028,,,,,,,,,34.35,42.805,,42.594,70.344,,,0.75,1.195,
Dec 2028,31.12.2028,,,,35.1,44,,,,35.1,44,35.1,45.068,72.818,,,0.75,1.195,
Mrz 2029,31.03.2029,,,,,,,,,37.5,46.0,35.8375,47.542,75.292,,,2.3625,2.0,0.7375
Jun 2029,30.06.2029,,,,,,,,,39.8,48.0,36.575,50.016,77.766,,,2.3625,2.0,0.7375
Sep 2029,30.09.2029,,,,,,,,,42.2,50.0,37.3125,52.49,80.24,,,2.3625,2.0,0.7375
Dec 2029,31.12.2029,,,,,,,,,44.6,52.0,38.05,54.964,82.714,,,2.3625,2.0,0.7375
Mrz 2030,31.03.2030,,,,,,,,,46.9,54.0,38.7875,57.438,85.188,,,2.3625,2.0,0.7375
Jun 2030,30.06.2030,,,,,,,,,49.3,56.0,39.525,59.912,87.662,,,2.3625,2.0,0.7375
Sep 2030,30.09.2030,,,,,,,,,51.6,58.0,40.2625,62.386,90.136,,,2.3625,2.0,0.7375
Dec 2030,31.12.2030,,,,,,54,60,,54.0,60.0,41,64.86,92.61,35.1,35.1,2.3625,2.0,0.7375
Mrz 2031,31.03.2031,,,,,,,,,55.1,62.0,41.7375,67.01,94.2115,35.53,37.48,1.05,2.0,0.7375
Jun 2031,30.06.2031,,,,,,,,,56.1,64.0,42.475,69.16,95.813,35.96,39.86,1.05,2.0,0.7375
Sep 2031,30.09.2031,,,,,,,,,57.2,66.0,43.2125,71.31,97.4145,36.39,42.24,1.05,2.0,0.7375
Dec 2031,31.12.2031,,,,,,,,,58.2,68.0,43.95,73.46,99.016,36.82,44.62,1.05,2.0,0.7375
Mrz 2032,31.03.2032,,,,,,,,,59.3,70.0,44.6875,75.61,100.6175,37.25,47,1.05,2.0,0.7375
Jun 2032,30.06.2032,,,,,,,,,60.3,72.0,45.425,77.76,102.219,37.68,49.38,1.05,2.0,0.7375
Sep 2032,30.09.2032,,,,,,,,,61.4,74.0,46.1625,79.91,103.8205,38.11,51.76,1.05,2.0,0.7375
Dec 2032,31.12.2032,,,,,,,,,62.4,76.0,46.9,82.06,105.422,38.54,54.14,1.05,2.0,0.7375
Mrz 2033,31.03.2033,,,,,,,,,63.5,78.0,47.6375,84.21,107.0235,38.97,56.52,1.05,2.0,0.7375
Jun 2033,30.06.2033,,,,,,,,,64.5,80.0,48.375,86.36,108.625,39.4,58.9,1.05,2.0,0.7375
Sep 2033,30.09.2033,,,,,,,,,65.6,82.0,49.1125,88.51,110.2265,39.83,61.28,1.05,2.0,0.7375
Dec 2033,31.12.2033,,,,,,,,,66.6,84.0,49.85,90.66,111.828,40.26,63.66,1.05,2.0,0.7375
Mrz 2034,31.03.2034,,,,,,,,,67.6,86.0,50.5875,92.81,113.4295,40.69,66.04,1.05,2.0,0.7375
Jun 2034,30.06.2034,,,,,,,,,68.7,88.0,51.325,94.96,115.031,41.12,68.42,1.05,2.0,0.7375
Sep 2034,30.09.2034,,,,,,,,,69.7,90.0,52.0625,97.11,116.6325,41.55,70.8,1.05,2.0,0.7375
Dec 2034,31.12.2034,,,,,,,,,70.8,92.0,52.8,99.26,118.234,41.98,73.18,1.05,2.0,0.7375
Mrz 2035,31.03.2035,,,,,,,,,71.8,94.0,53.5375,101.41,119.8355,42.41,75.56,1.05,2.0,0.7375
Jun 2035,30.06.2035,,,,,,,,,72.9,96.0,54.275,103.56,121.437,42.84,77.94,1.05,2.0,0.7375
Sep 2035,30.09.2035,,,,,,,,,73.9,98.0,55.0125,105.71,123.0385,43.27,80.32,1.05,2.0,0.7375
Dec 2035,31.12.2035,,,,,,75,100,,75.0,100.0,55.75,107.86,124.64,43.7,82.7,1.05,2.0,0.7375
Mrz 2036,31.03.2036,,,,,,,,,,,56.4875,107.923,125.7895,44.13,85.08,,,0.7375
Jun 2036,30.06.2036,,,,,,,,,,,57.225,107.986,126.939,44.56,87.46,,,0.7375
Sep 2036,30.09.2036,,,,,,,,,,,57.9625,108.049,128.0885,44.99,89.84,,,0.7375
Dec 2036,31.12.2036,,,,,,,,,,,58.7,108.112,129.238,45.42,92.22,,,0.7375
Mrz 2037,31.03.2037,,,,,,,,,,,59.4375,108.175,130.3875,45.85,94.6,,,0.7375
Jun 2037,30.06.2037,,,,,,,,,,,60.175,108.238,131.537,46.28,96.98,,,0.7375
Sep 2037,30.09.2037,,,,,,,,,,,60.9125,108.301,132.6865,46.71,99.36,,,0.7375
Dec 2037,31.12.2037,,,,,,,,,,,61.65,108.364,133.836,47.14,101.74,,,0.7375
Mrz 2038,31.03.2038,,,,,,,,,,,62.3875,108.427,134.9855,47.57,104.12,,,0.7375
Jun 2038,30.06.2038,,,,,,,,,,,63.125,108.49,136.135,48,106.5,,,0.7375
Sep 2038,30.09.2038,,,,,,,,,,,63.8625,108.553,137.2845,48.43,108.88,,,0.7375
Dec 2038,31.12.2038,,,,,,,,,,,64.6,108.616,138.434,48.86,111.26,,,0.7375
Mrz 2039,31.03.2039,,,,,,,,,,,65.3375,108.679,139.5835,49.29,113.64,,,0.7375
Jun 2039,30.06.2039,,,,,,,,,,,66.075,108.742,140.733,49.72,116.02,,,0.7375
Sep 2039,30.09.2039,,,,,,,,,,,66.8125,108.805,141.8825,50.15,118.4,,,0.7375
Dec 2039,31.12.2039,,,,,,,,,,,67.55,108.868,143.032,50.58,120.78,,,0.7375
Mrz 2040,31.03.2040,,,,,,,,,,,68.2875,108.931,144.1815,51.01,123.16,,,0.7375
Jun 2040,30.06.2040,,,,,,,,,,,69.025,108.994,145.331,51.44,125.54,,,0.7375
Sep 2040,30.09.2040,,,,,,,,,,,69.7625,109.057,146.4805,51.87,127.92,,,0.7375
Dec 2040,31.12.2040,,,,,,,,,,,70.5,109.12,147.63,52.3,130.3,,,0.7375
Mrz 2041,31.03.2041,,,,,,,,,,,71.2375,109.12,149.3245,52.7425,132.3925,,,0.7375
Jun 2041,30.06.2041,,,,,,,,,,,71.975,109.12,151.019,53.185,134.485,,,0.7375
Sep 2041,30.09.2041,,,,,,,,,,,72.7125,109.12,152.7135,53.6275,136.5775,,,0.7375
Dec 2041,31.12.2041,,,,,,,,,,,73.45,109.12,154.408,54.07,138.67,,,0.7375
Mrz 2042,31.03.2042,,,,,,,,,,,74.1875,109.12,156.1025,54.5125,140.7625,,,0.7375
Jun 2042,30.06.2042,,,,,,,,,,,74.925,109.12,157.797,54.955,142.855,,,0.7375
Sep 2042,30.09.2042,,,,,,,,,,,75.6625,109.12,159.4915,55.3975,144.9475,,,0.7375
Dec 2042,31.12.2042,,,,,,,,,,,76.4,109.12,161.186,55.84,147.04,,,0.7375
Mrz 2043,31.03.2043,,,,,,,,,,,77.1375,109.12,162.8805,56.2825,149.1325,,,0.7375
Jun 2043,30.06.2043,,,,,,,,,,,77.875,109.12,164.575,56.725,151.225,,,0.7375
Sep 2043,30.09.2043,,,,,,,,,,,78.6125,109.12,166.2695,57.1675,153.3175,,,0.7375
Dec 2043,31.12.2043,,,,,,,,,,,79.35,109.12,167.964,57.61,155.41,,,0.7375
Mrz 2044,31.03.2044,,,,,,,,,,,80.0875,109.12,169.6585,58.0525,157.5025,,,0.7375
Jun 2044,30.06.2044,,,,,,,,,,,80.825,109.12,171.353,58.495,159.595,,,0.7375
Sep 2044,30.09.2044,,,,,,,,,,,81.5625,109.12,173.0475,58.9375,161.6875,,,0.7375
Dec 2044,31.12.2044,,,,,,,,,,,82.3,109.12,174.742,59.38,163.78,,,0.7375
Mrz 2045,31.03.2045,,,,,,,,,,,83.0375,109.12,176.4365,59.8225,165.8725,,,0.7375
Jun 2045,30.06.2045,,,,,,,,,,,83.775,109.12,178.131,60.265,167.965,,,0.7375
Sep 2045,30.09.2045,,,,,,,,,,,84.5125,109.12,179.8255,60.7075,170.0575,,,0.7375
Dec 2045,31.12.2045,,,,,,,,,,,85.25,109.12,181.52,61.15,172.15,,,0.7375
Mrz 2046,31.03.2046,,,,,,,,,,,85.9875,109.12,182.649,61.5925,174.2425,,,0.7375
Jun 2046,30.06.2046,,,,,,,,,,,86.725,109.12,183.778,62.035,176.335,,,0.7375
Sep 2046,30.09.2046,,,,,,,,,,,87.4625,109.12,184.907,62.4775,178.4275,,,0.7375
Dec 2046,31.12.2046,,,,,,,,,,,88.2,109.12,186.036,62.92,180.52,,,0.7375
Mrz 2047,31.03.2047,,,,,,,,,,,88.9375,109.12,187.165,63.3625,182.6125,,,0.7375
Jun 2047,30.06.2047,,,,,,,,,,,89.675,109.12,188.294,63.805,184.705,,,0.7375
Sep 2047,30.09.2047,,,,,,,,,,,90.4125,109.12,189.423,64.2475,186.7975,,,0.7375
Dec 2047,31.12.2047,,,,,,,,,,,91.15,109.12,190.552,64.69,188.89,,,0.7375
Mrz 2048,31.03.2048,,,,,,,,,,,91.8875,109.12,191.681,65.1325,190.9825,,,0.7375
Jun 2048,30.06.2048,,,,,,,,,,,92.625,109.12,192.81,65.575,193.075,,,0.7375
Sep 2048,30.09.2048,,,,,,,,,,,93.3625,109.12,193.939,66.0175,195.1675,,,0.7375
Dec 2048,31.12.2048,,,,,,,,,,,94.1,109.12,195.068,66.46,197.26,,,0.7375
Mrz 2049,31.03.2049,,,,,,,,,,,94.8375,109.12,196.197,66.9025,199.3525,,,0.7375
Jun 2049,30.06.2049,,,,,,,,,,,95.575,109.12,197.326,67.345,201.445,,,0.7375
Sep 2049,30.09.2049,,,,,,,,,,,96.3125,109.12,198.455,67.7875,203.5375,,,0.7375
Dec 2049,31.12.2049,,,,,,,,,,,97.05,109.12,199.584,68.23,205.63,,,0.7375
Mrz 2050,31.03.2050,,,,,,,,,,,97.7875,109.12,200.713,68.6725,207.7225,,,0.7375
Jun 2050,30.06.2050,,,,,,,,,,,98.525,109.12,201.842,69.115,209.815,,,0.7375
Sep 2050,30.09.2050,,,,,,,,,,,99.2625,109.12,202.971,69.5575,211.9075,,,0.7375
Dec 2050,31.12.2050,,,,,,,,100,,,100,109.12,204.1,70,214,,,0.7375